Processor/tb_dCacheController.vcd
$version Generated by VerilatedVcd $end
$timescale 1ps $end
 $scope module TOP $end
  $scope module CORE_PKG $end
   $var wire 32 J$ WORD_SIZE [31:0] $end
   $var wire 32 K$ NUM_FUS [31:0] $end
   $var wire 32 E# RS_ENTRIES [31:0] $end
   $var wire 32 C# NUM_PREGS [31:0] $end
   $var wire 32 J$ NUM_AREGS [31:0] $end
   $var wire 32 L$ NUM_ROB_ENTS [31:0] $end
   $var wire 32 K$ RETIRE_WIDTH [31:0] $end
   $var wire 32 M$ DISP_WIDTH [31:0] $end
   $var wire 32 L$ DISP_DEPTH [31:0] $end
   $var wire 32 M$ RENAME_WIDTH [31:0] $end
  $upscope $end
  $scope module tb_dCacheController $end
   $var wire 32 <# CLK_PERIOD [31:0] $end
   $var real 64 =# DUTY_CYCLE $end
   $var wire 1 3# clk $end
   $var wire 32 4# cycle_count [31:0] $end
   $var wire 1 # rst $end
   $scope module arbiter_if $end
    $var wire 1 $ raddr_valid $end
    $var wire 32 % raddr [31:0] $end
    $var wire 32 :# rdata [31:0] $end
    $var wire 1 ;# rdata_valid $end
    $var wire 1 F waddr_valid $end
    $var wire 32 G waddr [31:0] $end
    $var wire 1024 & wdata [1023:0] $end
    $var wire 128 H wmask [127:0] $end
    $var wire 1 1" read_repair_request $end
    $var wire 1 8# write_miss_repair $end
    $var wire 32 e! missed_addr [31:0] $end
    $var wire 1 L repair_resolved $end
    $var wire 1 N$ sent_repair $end
   $upscope $end
   $scope module controller_dut $end
    $var wire 1 3# clk $end
    $var wire 1 # rst $end
    $scope module arbiter $end
     $var wire 1 $ raddr_valid $end
     $var wire 32 % raddr [31:0] $end
     $var wire 32 :# rdata [31:0] $end
     $var wire 1 ;# rdata_valid $end
     $var wire 1 F waddr_valid $end
     $var wire 32 G waddr [31:0] $end
     $var wire 1024 & wdata [1023:0] $end
     $var wire 128 H wmask [127:0] $end
     $var wire 1 1" read_repair_request $end
     $var wire 1 8# write_miss_repair $end
     $var wire 32 e! missed_addr [31:0] $end
     $var wire 1 L repair_resolved $end
     $var wire 1 N$ sent_repair $end
    $upscope $end
    $var wire 32 ?# c [31:0] $end
    $var wire 32 @# b [31:0] $end
    $var wire 32 A# s [31:0] $end
    $var wire 32 B# TAG_BITS [31:0] $end
    $var wire 32 <# DIRTY [31:0] $end
    $var wire 32 <# VALID [31:0] $end
    $var wire 1 $ raddr_valid $end
    $var wire 32 % raddr [31:0] $end
    $var wire 1024 i" rdata_block [1023:0] $end
    $var wire 1024 & wdata [1023:0] $end
    $var wire 1 F waddr_valid $end
    $var wire 32 G waddr [31:0] $end
    $var wire 128 H wmask [127:0] $end
    $var wire 1 L repair_resolved $end
    $var wire 32 p raddr_reg0 [31:0] $end
    $var wire 32 q raddr_reg1 [31:0] $end
    $var wire 32 r raddr_reg2 [31:0] $end
    $var wire 1 s raddr_valid_reg0 $end
    $var wire 1 t raddr_valid_reg1 $end
    $var wire 1 u raddr_valid_reg2 $end
    $var wire 1024 v wdata_reg0 [1023:0] $end
    $var wire 1024 8! wdata_reg1 [1023:0] $end
    $var wire 128 X! wmask_reg0 [127:0] $end
    $var wire 128 \! wmask_reg1 [127:0] $end
    $var wire 32 `! waddr_reg0 [31:0] $end
    $var wire 32 a! waddr_reg1 [31:0] $end
    $var wire 1 b! waddr_valid_reg0 $end
    $var wire 1 c! waddr_valid_reg1 $end
    $var wire 1 d! rdata_valid $end
    $var wire 32 e! missed_addr [31:0] $end
    $var wire 128 f! wmask_i [127:0] $end
    $var wire 32 j! waddr_i [31:0] $end
    $var wire 1024 k! wdata_i [1023:0] $end
    $var wire 19 -" wblock_metadata_i [18:0] $end
    $var wire 19 5# wblock_metadata_o [18:0] $end
    $var wire 1 ." read_tag $end
    $var wire 8 M read_address [7:0] $end
    $var wire 1 /" repairing $end
    $var wire 1 6# repairing_next $end
    $var wire 1 0" repairing_prev $end
    $var wire 1 1" read_repair_request $end
    $var wire 19 +# rblock_metadata [18:0] $end
    $var wire 1 ,# rblock_valid $end
    $var wire 1 -# rblock_dirty $end
    $var wire 17 .# rtag [16:0] $end
    $var wire 1 7# read_hit $end
    $var wire 1 8# write_miss_repair $end
    $var wire 19 /# wblock_metadata [18:0] $end
    $var wire 1 0# wblock_valid $end
    $var wire 1 1# wblock_dirty $end
    $var wire 17 2# wtag [16:0] $end
    $var wire 1 2" write_enable $end
    $scope module data_store $end
     $var wire 32 C# NUM_WMASKS [31:0] $end
     $var wire 32 D# DATA_WIDTH [31:0] $end
     $var wire 32 E# ADDR_WIDTH [31:0] $end
     $var wire 32 F# RAM_DEPTH [31:0] $end
     $var wire 32 A# DELAY [31:0] $end
     $var wire 32 <# VERBOSE [31:0] $end
     $var wire 32 A# T_HOLD [31:0] $end
     $var wire 1 3# clk0 $end
     $var wire 1 3" csb0 $end
     $var wire 8 4" addr0 [7:0] $end
     $var wire 128 f! wmask0 [127:0] $end
     $var wire 1024 k! din0 [1023:0] $end
     $var wire 1 3# clk1 $end
     $var wire 1 5" csb1 $end
     $var wire 8 6" addr1 [7:0] $end
     $var wire 1024 i" dout1 [1023:0] $end
     $var wire 1 7" csb0_reg $end
     $var wire 128 8" wmask0_reg [127:0] $end
     $var wire 8 <" addr0_reg [7:0] $end
     $var wire 1024 =" din0_reg [1023:0] $end
     $var wire 1 ]" csb1_reg $end
     $var wire 8 ^" addr1_reg [7:0] $end
     $scope module MEM_WRITE0 $end
      $scope module unnamedblk1 $end
       $var wire 32 9# i [31:0] $end
      $upscope $end
     $upscope $end
    $upscope $end
    $scope module tag_store0 $end
     $var wire 32 G# DATA_WIDTH [31:0] $end
     $var wire 32 E# ADDR_WIDTH [31:0] $end
     $var wire 32 F# RAM_DEPTH [31:0] $end
     $var wire 32 A# DELAY [31:0] $end
     $var wire 32 <# VERBOSE [31:0] $end
     $var wire 32 A# T_HOLD [31:0] $end
     $var wire 1 3# clk0 $end
     $var wire 1 3" csb0 $end
     $var wire 8 4" addr0 [7:0] $end
     $var wire 19 -" din0 [18:0] $end
     $var wire 1 3# clk1 $end
     $var wire 1 5" csb1 $end
     $var wire 8 6" addr1 [7:0] $end
     $var wire 19 +# dout1 [18:0] $end
     $var wire 1 _" csb0_reg $end
     $var wire 8 `" addr0_reg [7:0] $end
     $var wire 19 a" din0_reg [18:0] $end
     $var wire 1 b" csb1_reg $end
     $var wire 8 c" addr1_reg [7:0] $end
    $upscope $end
    $scope module tag_store1 $end
     $var wire 32 G# DATA_WIDTH [31:0] $end
     $var wire 32 E# ADDR_WIDTH [31:0] $end
     $var wire 32 F# RAM_DEPTH [31:0] $end
     $var wire 32 A# DELAY [31:0] $end
     $var wire 32 <# VERBOSE [31:0] $end
     $var wire 32 A# T_HOLD [31:0] $end
     $var wire 1 3# clk0 $end
     $var wire 1 3" csb0 $end
     $var wire 8 4" addr0 [7:0] $end
     $var wire 19 -" din0 [18:0] $end
     $var wire 1 3# clk1 $end
     $var wire 1 N csb1 $end
     $var wire 8 O addr1 [7:0] $end
     $var wire 19 /# dout1 [18:0] $end
     $var wire 1 d" csb0_reg $end
     $var wire 8 e" addr0_reg [7:0] $end
     $var wire 19 f" din0_reg [18:0] $end
     $var wire 1 g" csb1_reg $end
     $var wire 8 h" addr1_reg [7:0] $end
    $upscope $end
   $upscope $end
   $scope module read_hit__Vstatic__unnamedblk2 $end
    $var wire 1024 H# repaired_block [1023:0] $end
   $upscope $end
   $scope module read_miss_and_repair__Vstatic__unnamedblk1 $end
    $var wire 1024 P repaired_block [1023:0] $end
   $upscope $end
   $scope module write_hit__Vstatic__unnamedblk3 $end
    $var wire 1024 h# new_block [1023:0] $end
   $upscope $end
   $scope module write_miss__Vstatic__unnamedblk4 $end
    $var wire 1024 *$ new_block [1023:0] $end
   $upscope $end
  $upscope $end
 $upscope $end
$enddefinitions $end


#0
1#
0$
b00000000000000000000000000000000 %
b0000000000000000000000000000000000000000000000000000000000000000000000000000000000000000000000000000000000000000000000000000000000000000000000000000000000000000000000000000000000000000000000000000000000000000000000000000000000000000000000000000000000000000000000000000000000000000000000000000000000000000000000000000000000000000000000000000000000000000000000000000000000000000000000000000000000000000000000000000000000000000000000000000000000000000000000000000000000000000000000000000000000000000000000000000000000000000000000000000000000000000000000000000000000000000000000000000000000000000000000000000000000000000000000000000000000000000000000000000000000000000000000000000000000000000000000000000000000000000000000000000000000000000000000000000000000000000000000000000000000000000000000000000000000000000000000000000000000000000000000000000000000000000000000000000000000000000000000000000000000000000000000000000000000000000000000000000000000000000000000000000000000000000000000000000000000000000000000000000000000000000 &
0F
b00000000000000000000000000000000 G
b00000000000000000000000000000000000000000000000000000000000000000000000000000000000000000000000000000000000000000000000000000000 H
0L
b00000000 M
1N
b00000000 O
b0000000000000000000000000000000000000000000000000000000000000000000000000000000000000000000000000000000000000000000000000000000000000000000000000000000000000000000000000000000000000000000000000000000000000000000000000000000000000000000000000000000000000000000000000000000000000000000000000000000000000000000000000000000000000000000000000000000000000000000000000000000000000000000000000000000000000000000000000000000000000000000000000000000000000000000000000000000000000000000000000000000000000000000000000000000000000000000000000000000000000000000000000000000000000000000000000000000000000000000000000000000000000000000000000000000000000000000000000000000000000000000000000000000000000000000000000000000000000000000000000000000000000000000000000000000000000000000000000000000000000000000000000000000000000000000000000000000000000000000000000000000000000000000000000000000000000000000000000000000000000000000000000000000000000000000000000000000000000000000000000000000000000000000000000000000000000000000000000000000000000000 P
b00000000000000000000000000000000 p
b00000000000000000000000000000000 q
b00000000000000000000000000000000 r
0s
0t
0u
b0000000000000000000000000000000000000000000000000000000000000000000000000000000000000000000000000000000000000000000000000000000000000000000000000000000000000000000000000000000000000000000000000000000000000000000000000000000000000000000000000000000000000000000000000000000000000000000000000000000000000000000000000000000000000000000000000000000000000000000000000000000000000000000000000000000000000000000000000000000000000000000000000000000000000000000000000000000000000000000000000000000000000000000000000000000000000000000000000000000000000000000000000000000000000000000000000000000000000000000000000000000000000000000000000000000000000000000000000000000000000000000000000000000000000000000000000000000000000000000000000000000000000000000000000000000000000000000000000000000000000000000000000000000000000000000000000000000000000000000000000000000000000000000000000000000000000000000000000000000000000000000000000000000000000000000000000000000000000000000000000000000000000000000000000000000000000000000000000000000000000000 v
b0000000000000000000000000000000000000000000000000000000000000000000000000000000000000000000000000000000000000000000000000000000000000000000000000000000000000000000000000000000000000000000000000000000000000000000000000000000000000000000000000000000000000000000000000000000000000000000000000000000000000000000000000000000000000000000000000000000000000000000000000000000000000000000000000000000000000000000000000000000000000000000000000000000000000000000000000000000000000000000000000000000000000000000000000000000000000000000000000000000000000000000000000000000000000000000000000000000000000000000000000000000000000000000000000000000000000000000000000000000000000000000000000000000000000000000000000000000000000000000000000000000000000000000000000000000000000000000000000000000000000000000000000000000000000000000000000000000000000000000000000000000000000000000000000000000000000000000000000000000000000000000000000000000000000000000000000000000000000000000000000000000000000000000000000000000000000000000000000000000000000000 8!
b00000000000000000000000000000000000000000000000000000000000000000000000000000000000000000000000000000000000000000000000000000000 X!
b00000000000000000000000000000000000000000000000000000000000000000000000000000000000000000000000000000000000000000000000000000000 \!
b00000000000000000000000000000000 `!
b00000000000000000000000000000000 a!
0b!
0c!
0d!
b00000000000000000000000000000000 e!
b00000000000000000000000000000000000000000000000000000000000000000000000000000000000000000000000000000000000000000000000000000000 f!
b00000000000000000000000000000000 j!
b0000000000000000000000000000000000000000000000000000000000000000000000000000000000000000000000000000000000000000000000000000000000000000000000000000000000000000000000000000000000000000000000000000000000000000000000000000000000000000000000000000000000000000000000000000000000000000000000000000000000000000000000000000000000000000000000000000000000000000000000000000000000000000000000000000000000000000000000000000000000000000000000000000000000000000000000000000000000000000000000000000000000000000000000000000000000000000000000000000000000000000000000000000000000000000000000000000000000000000000000000000000000000000000000000000000000000000000000000000000000000000000000000000000000000000000000000000000000000000000000000000000000000000000000000000000000000000000000000000000000000000000000000000000000000000000000000000000000000000000000000000000000000000000000000000000000000000000000000000000000000000000000000000000000000000000000000000000000000000000000000000000000000000000000000000000000000000000000000000000000000000 k!
b0000000000000000000 -"
0."
0/"
00"
01"
02"
13"
b00000000 4"
15"
b00000000 6"
07"
b00000000000000000000000000000000000000000000000000000000000000000000000000000000000000000000000000000000000000000000000000000000 8"
b00000000 <"
b0000000000000000000000000000000000000000000000000000000000000000000000000000000000000000000000000000000000000000000000000000000000000000000000000000000000000000000000000000000000000000000000000000000000000000000000000000000000000000000000000000000000000000000000000000000000000000000000000000000000000000000000000000000000000000000000000000000000000000000000000000000000000000000000000000000000000000000000000000000000000000000000000000000000000000000000000000000000000000000000000000000000000000000000000000000000000000000000000000000000000000000000000000000000000000000000000000000000000000000000000000000000000000000000000000000000000000000000000000000000000000000000000000000000000000000000000000000000000000000000000000000000000000000000000000000000000000000000000000000000000000000000000000000000000000000000000000000000000000000000000000000000000000000000000000000000000000000000000000000000000000000000000000000000000000000000000000000000000000000000000000000000000000000000000000000000000000000000000000000000000000 ="
0]"
b00000000 ^"
0_"
b00000000 `"
b0000000000000000000 a"
0b"
b00000000 c"
0d"
b00000000 e"
b0000000000000000000 f"
0g"
b00000000 h"
b0000000000000000000000000000000000000000000000000000000000000000000000000000000000000000000000000000000000000000000000000000000000000000000000000000000000000000000000000000000000000000000000000000000000000000000000000000000000000000000000000000000000000000000000000000000000000000000000000000000000000000000000000000000000000000000000000000000000000000000000000000000000000000000000000000000000000000000000000000000000000000000000000000000000000000000000000000000000000000000000000000000000000000000000000000000000000000000000000000000000000000000000000000000000000000000000000000000000000000000000000000000000000000000000000000000000000000000000000000000000000000000000000000000000000000000000000000000000000000000000000000000000000000000000000000000000000000000000000000000000000000000000000000000000000000000000000000000000000000000000000000000000000000000000000000000000000000000000000000000000000000000000000000000000000000000000000000000000000000000000000000000000000000000000000000000000000000000000000000000000000000 i"
b0000000000000000000 +#
0,#
0-#
b00000000000000000 .#
b0000000000000000000 /#
00#
01#
b00000000000000000 2#
03#
b00000000000000000000000000000000 4#
b0000000000000000000 5#
06#
07#
08#
b00000000000000000000000000000000 9#
b00000000000000000000000000000000 :#
0;#
b00000000000000000000000000000001 <#
r0.5 =#
b00000000000000000000000000001111 ?#
b00000000000000000000000000000111 @#
b00000000000000000000000000000000 A#
b00000000000000000000000000010001 B#
b00000000000000000000000010000000 C#
b00000000000000000000010000000000 D#
b00000000000000000000000000001000 E#
b00000000000000000000000100000000 F#
b00000000000000000000000000010011 G#
b0000000000000000000000000000000000000000000000000000000000000000000000000000000000000000000000000000000000000000000000000000000000000000000000000000000000000000000000000000000000000000000000000000000000000000000000000000000000000000000000000000000000000000000000000000000000000000000000000000000000000000000000000000000000000000000000000000000000000000000000000000000000000000000000000000000000000000000000000000000000000000000000000000000000000000000000000000000000000000000000000000000000000000000000000000000000000000000000000000000000000000000000000000000000000000000000000000000000000000000000000000000000000000000000000000000000000000000000000000000000000000000000000000000000000000000000000000000000000000000000000000000000000000000000000000000000000000000000000000000000000000000000000000000000000000000000000000000000000000000000000000000000000000000000000000000000000000000000000000000000000000000000000000000000000000000000000000000000000000000000000000000000000000000000000000000000000000000000000000000000000000 H#
b0000000000000000000000000000000000000000000000000000000000000000000000000000000000000000000000000000000000000000000000000000000000000000000000000000000000000000000000000000000000000000000000000000000000000000000000000000000000000000000000000000000000000000000000000000000000000000000000000000000000000000000000000000000000000000000000000000000000000000000000000000000000000000000000000000000000000000000000000000000000000000000000000000000000000000000000000000000000000000000000000000000000000000000000000000000000000000000000000000000000000000000000000000000000000000000000000000000000000000000000000000000000000000000000000000000000000000000000000000000000000000000000000000000000000000000000000000000000000000000000000000000000000000000000000000000000000000000000000000000000000000000000000000000000000000000000000000000000000000000000000000000000000000000000000000000000000000000000000000000000000000000000000000000000000000000000000000000000000000000000000000000000000000000000000000000000000000000000000000000000000000 h#
b0000000000000000000000000000000000000000000000000000000000000000000000000000000000000000000000000000000000000000000000000000000000000000000000000000000000000000000000000000000000000000000000000000000000000000000000000000000000000000000000000000000000000000000000000000000000000000000000000000000000000000000000000000000000000000000000000000000000000000000000000000000000000000000000000000000000000000000000000000000000000000000000000000000000000000000000000000000000000000000000000000000000000000000000000000000000000000000000000000000000000000000000000000000000000000000000000000000000000000000000000000000000000000000000000000000000000000000000000000000000000000000000000000000000000000000000000000000000000000000000000000000000000000000000000000000000000000000000000000000000000000000000000000000000000000000000000000000000000000000000000000000000000000000000000000000000000000000000000000000000000000000000000000000000000000000000000000000000000000000000000000000000000000000000000000000000000000000000000000000000000000 *$
b00000000000000000000000000100000 J$
b00000000000000000000000000000100 K$
b00000000000000000000000001000000 L$
b00000000000000000000000000000010 M$
0N$
#500
0#
17"
1]"
1_"
1b"
1d"
1g"
13#
b00000000000000000000000000000001 4#
#1000
03#
#1500
1$
b10101010101110111100110011011101 %
b10011001 M
b10101010101110111100110011011101 p
1s
1."
05"
b10011001 6"
13#
b00000000000000000000000000000010 4#
#2000
03#
#2500
0$
b00000000000000000000000000000000 %
b00000000 M
b00000000000000000000000000000000 p
b10101010101110111100110011011101 q
0s
1t
0."
b00000000 6"
0]"
b10011001 ^"
0b"
b10011001 c"
13#
b00000000000000000000000000000011 4#
#3000
03#
#3500
b00000000000000000000000000000000 q
b10101010101110111100110011011101 r
0t
1u
1d!
15"
b00000000 ^"
b00000000 c"
13#
b00000000000000000000000000000100 4#
1;#
#4000
03#
#4500
b00000000000000000000000000000000 r
0u
0d!
b10101010101110111100110011011101 e!
11"
1]"
1b"
13#
b00000000000000000000000000000101 4#
16#
0;#
#5000
03#
#5500
b0000000000000000000000000000000000010001000100010001000100010001001000100010001000100010001000100011001100110011001100110011001101000100010001000100010001000100010101010101010101010101010101010110011001100110011001100110011001110111011101110111011101110111000000000000000000000000000000000001000100010001000100010001000100100010001000100010001000100010001100110011001100110011001100110100010001000100010001000100010001010101010101010101010101010101011001100110011001100110011001100111011101110111011101110111011100000000000000000000000000000000000100010001000100010001000100010010001000100010001000100010001000110011001100110011001100110011010001000100010001000100010001000101010101010101010101010101010101100110011001100110011001100110011101110111011101110111011101110000000000000000000000000000000000010001000100010001000100010001001000100010001000100010001000100011001100110011001100110011001101000100010001000100010001000100010101010101010101010101010101010110011001100110011001100110011001110111011101110111011101110111 &
1F
b10101010101110111100110011011101 G
b11111111111111111111111111111111111111111111111111111111111111111111111111111111111111111111111111111111111111111111111111111111 H
0N
b10011001 O
b0000000000000000000000000000000000010001000100010001000100010001001000100010001000100010001000100011001100110011001100110011001101000100010001000100010001000100010101010101010101010101010101010110011001100110011001100110011001110111011101110111011101110111000000000000000000000000000000000001000100010001000100010001000100100010001000100010001000100010001100110011001100110011001100110100010001000100010001000100010001010101010101010101010101010101011001100110011001100110011001100111011101110111011101110111011100000000000000000000000000000000000100010001000100010001000100010010001000100010001000100010001000110011001100110011001100110011010001000100010001000100010001000101010101010101010101010101010101100110011001100110011001100110011101110111011101110111011101110000000000000000000000000000000000010001000100010001000100010001001000100010001000100010001000100011001100110011001100110011001101000100010001000100010001000100010101010101010101010101010101010110011001100110011001100110011001110111011101110111011101110111 P
b00000000000000000000000000000000 e!
1/"
01"
0g"
b10011001 h"
13#
b00000000000000000000000000000110 4#
#6000
03#
#6500
0F
1L
1N
b0000000000000000000000000000000000010001000100010001000100010001001000100010001000100010001000100011001100110011001100110011001101000100010001000100010001000100010101010101010101010101010101010110011001100110011001100110011001110111011101110111011101110111000000000000000000000000000000000001000100010001000100010001000100100010001000100010001000100010001100110011001100110011001100110100010001000100010001000100010001010101010101010101010101010101011001100110011001100110011001100111011101110111011101110111011100000000000000000000000000000000000100010001000100010001000100010010001000100010001000100010001000110011001100110011001100110011010001000100010001000100010001000101010101010101010101010101010101100110011001100110011001100110011101110111011101110111011101110000000000000000000000000000000000010001000100010001000100010001001000100010001000100010001000100011001100110011001100110011001101000100010001000100010001000100010101010101010101010101010101010110011001100110011001100110011001110111011101110111011101110111 v
b11111111111111111111111111111111111111111111111111111111111111111111111111111111111111111111111111111111111111111111111111111111 X!
b10101010101110111100110011011101 `!
b11111111111111111111111111111111111111111111111111111111111111111111111111111111111111111111111111111111111111111111111111111111 f!
b10101010101110111100110011011101 j!
b0000000000000000000000000000000000010001000100010001000100010001001000100010001000100010001000100011001100110011001100110011001101000100010001000100010001000100010101010101010101010101010101010110011001100110011001100110011001110111011101110111011101110111000000000000000000000000000000000001000100010001000100010001000100100010001000100010001000100010001100110011001100110011001100110100010001000100010001000100010001010101010101010101010101010101011001100110011001100110011001100111011101110111011101110111011100000000000000000000000000000000000100010001000100010001000100010010001000100010001000100010001000110011001100110011001100110011010001000100010001000100010001000101010101010101010101010101010101100110011001100110011001100110011101110111011101110111011101110000000000000000000000000000000000010001000100010001000100010001001000100010001000100010001000100011001100110011001100110011001101000100010001000100010001000100010101010101010101010101010101010110011001100110011001100110011001110111011101110111011101110111 k!
b1010101010111011101 -"
0/"
10"
12"
03"
b10011001 4"
1g"
13#
b00000000000000000000000000000111 4#
06#
#7000
03#
#7500
b0000000000000000000000000000000000000000000000000000000000000000000000000000000000000000000000000000000000000000000000000000000000000000000000000000000000000000000000000000000000000000000000000000000000000000000000000000000000000000000000000000000000000000000000000000000000000000000000000000000000000000000000000000000000000000000000000000000000000000000000000000000000000000000000000000000000000000000000000000000000000000000000000000000000000000000000000000000000000000000000000000000000000000000000000000000000000000000000000000000000000000000000000000000000000000000000000000000000000000000000000000000000000000000000000000000000000000000000000000000000000000000000000000000000000000000000000000000000000000000000000000000000000000000000000000000000000000000000000000000000000000000000000000000000000000000000000000000000000000000000000000000000000000000000000000000000000000000000000000000000000000000000000000000000000000000000000000000000000000000000000000000000000000000000000000000000000000000000000000000000000000 &
b00000000000000000000000000000000 G
b00000000000000000000000000000000000000000000000000000000000000000000000000000000000000000000000000000000000000000000000000000000 H
0L
b00000000 O
b0000000000000000000000000000000000000000000000000000000000000000000000000000000000000000000000000000000000000000000000000000000000000000000000000000000000000000000000000000000000000000000000000000000000000000000000000000000000000000000000000000000000000000000000000000000000000000000000000000000000000000000000000000000000000000000000000000000000000000000000000000000000000000000000000000000000000000000000000000000000000000000000000000000000000000000000000000000000000000000000000000000000000000000000000000000000000000000000000000000000000000000000000000000000000000000000000000000000000000000000000000000000000000000000000000000000000000000000000000000000000000000000000000000000000000000000000000000000000000000000000000000000000000000000000000000000000000000000000000000000000000000000000000000000000000000000000000000000000000000000000000000000000000000000000000000000000000000000000000000000000000000000000000000000000000000000000000000000000000000000000000000000000000000000000000000000000000000000000000000000000000 v
b0000000000000000000000000000000000010001000100010001000100010001001000100010001000100010001000100011001100110011001100110011001101000100010001000100010001000100010101010101010101010101010101010110011001100110011001100110011001110111011101110111011101110111000000000000000000000000000000000001000100010001000100010001000100100010001000100010001000100010001100110011001100110011001100110100010001000100010001000100010001010101010101010101010101010101011001100110011001100110011001100111011101110111011101110111011100000000000000000000000000000000000100010001000100010001000100010010001000100010001000100010001000110011001100110011001100110011010001000100010001000100010001000101010101010101010101010101010101100110011001100110011001100110011101110111011101110111011101110000000000000000000000000000000000010001000100010001000100010001001000100010001000100010001000100011001100110011001100110011001101000100010001000100010001000100010101010101010101010101010101010110011001100110011001100110011001110111011101110111011101110111 8!
b00000000000000000000000000000000000000000000000000000000000000000000000000000000000000000000000000000000000000000000000000000000 X!
b11111111111111111111111111111111111111111111111111111111111111111111111111111111111111111111111111111111111111111111111111111111 \!
b00000000000000000000000000000000 `!
b10101010101110111100110011011101 a!
b00000000000000000000000000000000000000000000000000000000000000000000000000000000000000000000000000000000000000000000000000000000 f!
b00000000000000000000000000000000 j!
b0000000000000000000000000000000000000000000000000000000000000000000000000000000000000000000000000000000000000000000000000000000000000000000000000000000000000000000000000000000000000000000000000000000000000000000000000000000000000000000000000000000000000000000000000000000000000000000000000000000000000000000000000000000000000000000000000000000000000000000000000000000000000000000000000000000000000000000000000000000000000000000000000000000000000000000000000000000000000000000000000000000000000000000000000000000000000000000000000000000000000000000000000000000000000000000000000000000000000000000000000000000000000000000000000000000000000000000000000000000000000000000000000000000000000000000000000000000000000000000000000000000000000000000000000000000000000000000000000000000000000000000000000000000000000000000000000000000000000000000000000000000000000000000000000000000000000000000000000000000000000000000000000000000000000000000000000000000000000000000000000000000000000000000000000000000000000000000000000000000000000000 k!
b0000000000000000000 -"
00"
02"
13"
b00000000 4"
07"
b11111111111111111111111111111111111111111111111111111111111111111111111111111111111111111111111111111111111111111111111111111111 8"
b10011001 <"
b0000000000000000000000000000000000010001000100010001000100010001001000100010001000100010001000100011001100110011001100110011001101000100010001000100010001000100010101010101010101010101010101010110011001100110011001100110011001110111011101110111011101110111000000000000000000000000000000000001000100010001000100010001000100100010001000100010001000100010001100110011001100110011001100110100010001000100010001000100010001010101010101010101010101010101011001100110011001100110011001100111011101110111011101110111011100000000000000000000000000000000000100010001000100010001000100010010001000100010001000100010001000110011001100110011001100110011010001000100010001000100010001000101010101010101010101010101010101100110011001100110011001100110011101110111011101110111011101110000000000000000000000000000000000010001000100010001000100010001001000100010001000100010001000100011001100110011001100110011001101000100010001000100010001000100010101010101010101010101010101010110011001100110011001100110011001110111011101110111011101110111 ="
0_"
b10011001 `"
b1010101010111011101 a"
0d"
b10011001 e"
b1010101010111011101 f"
b00000000 h"
13#
b00000000000000000000000000001000 4#
#8000
03#
b00000000000000000000000010000000 9#
#8500
b0000000000000000000000000000000000000000000000000000000000000000000000000000000000000000000000000000000000000000000000000000000000000000000000000000000000000000000000000000000000000000000000000000000000000000000000000000000000000000000000000000000000000000000000000000000000000000000000000000000000000000000000000000000000000000000000000000000000000000000000000000000000000000000000000000000000000000000000000000000000000000000000000000000000000000000000000000000000000000000000000000000000000000000000000000000000000000000000000000000000000000000000000000000000000000000000000000000000000000000000000000000000000000000000000000000000000000000000000000000000000000000000000000000000000000000000000000000000000000000000000000000000000000000000000000000000000000000000000000000000000000000000000000000000000000000000000000000000000000000000000000000000000000000000000000000000000000000000000000000000000000000000000000000000000000000000000000000000000000000000000000000000000000000000000000000000000000000000000000000000000000 8!
b00000000000000000000000000000000000000000000000000000000000000000000000000000000000000000000000000000000000000000000000000000000 \!
b00000000000000000000000000000000 a!
b11111111111111111111111111111111111111111111111111111111111111111111111111111111111111111111111111111111111111111111111111111111 f!
b10101010101110111100110011011101 j!
b0000000000000000000000000000000000010001000100010001000100010001001000100010001000100010001000100011001100110011001100110011001101000100010001000100010001000100010101010101010101010101010101010110011001100110011001100110011001110111011101110111011101110111000000000000000000000000000000000001000100010001000100010001000100100010001000100010001000100010001100110011001100110011001100110100010001000100010001000100010001010101010101010101010101010101011001100110011001100110011001100111011101110111011101110111011100000000000000000000000000000000000100010001000100010001000100010010001000100010001000100010001000110011001100110011001100110011010001000100010001000100010001000101010101010101010101010101010101100110011001100110011001100110011101110111011101110111011101110000000000000000000000000000000000010001000100010001000100010001001000100010001000100010001000100011001100110011001100110011001101000100010001000100010001000100010101010101010101010101010101010110011001100110011001100110011001110111011101110111011101110111 k!
b10011001 4"
17"
b00000000000000000000000000000000000000000000000000000000000000000000000000000000000000000000000000000000000000000000000000000000 8"
b00000000 <"
b0000000000000000000000000000000000000000000000000000000000000000000000000000000000000000000000000000000000000000000000000000000000000000000000000000000000000000000000000000000000000000000000000000000000000000000000000000000000000000000000000000000000000000000000000000000000000000000000000000000000000000000000000000000000000000000000000000000000000000000000000000000000000000000000000000000000000000000000000000000000000000000000000000000000000000000000000000000000000000000000000000000000000000000000000000000000000000000000000000000000000000000000000000000000000000000000000000000000000000000000000000000000000000000000000000000000000000000000000000000000000000000000000000000000000000000000000000000000000000000000000000000000000000000000000000000000000000000000000000000000000000000000000000000000000000000000000000000000000000000000000000000000000000000000000000000000000000000000000000000000000000000000000000000000000000000000000000000000000000000000000000000000000000000000000000000000000000000000000000000000000000 ="
1_"
b00000000 `"
b0000000000000000000 a"
1d"
b00000000 e"
b0000000000000000000 f"
13#
b00000000000000000000000000001001 4#
#9000
03#
#9500
b00000000000000000000000000000000000000000000000000000000000000000000000000000000000000000000000000000000000000000000000000000000 f!
b00000000000000000000000000000000 j!
b0000000000000000000000000000000000000000000000000000000000000000000000000000000000000000000000000000000000000000000000000000000000000000000000000000000000000000000000000000000000000000000000000000000000000000000000000000000000000000000000000000000000000000000000000000000000000000000000000000000000000000000000000000000000000000000000000000000000000000000000000000000000000000000000000000000000000000000000000000000000000000000000000000000000000000000000000000000000000000000000000000000000000000000000000000000000000000000000000000000000000000000000000000000000000000000000000000000000000000000000000000000000000000000000000000000000000000000000000000000000000000000000000000000000000000000000000000000000000000000000000000000000000000000000000000000000000000000000000000000000000000000000000000000000000000000000000000000000000000000000000000000000000000000000000000000000000000000000000000000000000000000000000000000000000000000000000000000000000000000000000000000000000000000000000000000000000000000000000000000000000000 k!
b00000000 4"
b11111111111111111111111111111111111111111111111111111111111111111111111111111111111111111111111111111111111111111111111111111111 8"
b10011001 <"
b0000000000000000000000000000000000010001000100010001000100010001001000100010001000100010001000100011001100110011001100110011001101000100010001000100010001000100010101010101010101010101010101010110011001100110011001100110011001110111011101110111011101110111000000000000000000000000000000000001000100010001000100010001000100100010001000100010001000100010001100110011001100110011001100110100010001000100010001000100010001010101010101010101010101010101011001100110011001100110011001100111011101110111011101110111011100000000000000000000000000000000000100010001000100010001000100010010001000100010001000100010001000110011001100110011001100110011010001000100010001000100010001000101010101010101010101010101010101100110011001100110011001100110011101110111011101110111011101110000000000000000000000000000000000010001000100010001000100010001001000100010001000100010001000100011001100110011001100110011001101000100010001000100010001000100010101010101010101010101010101010110011001100110011001100110011001110111011101110111011101110111 ="
b10011001 `"
b10011001 e"
13#
b00000000000000000000000000001010 4#
#10000
03#
