Processor/tb_dCacheController.vcd
$version Generated by VerilatedVcd $end
$timescale 1ps $end
 $scope module TOP $end
  $scope module CORE_PKG $end
   $var wire 32 1! WORD_SIZE [31:0] $end
   $var wire 32 6! NUM_FUS [31:0] $end
   $var wire 32 3! RS_ENTRIES [31:0] $end
   $var wire 32 7! NUM_PREGS [31:0] $end
   $var wire 32 1! NUM_AREGS [31:0] $end
   $var wire 32 8! NUM_ROB_ENTS [31:0] $end
   $var wire 32 6! RETIRE_WIDTH [31:0] $end
   $var wire 32 9! DISP_WIDTH [31:0] $end
   $var wire 32 8! DISP_DEPTH [31:0] $end
   $var wire 32 9! RENAME_WIDTH [31:0] $end
  $upscope $end
  $scope module tb_dCacheController $end
   $var wire 32 *! CLK_PERIOD [31:0] $end
   $var real 64 +! DUTY_CYCLE $end
   $var wire 1 q clk $end
   $var wire 32 r cycle_count [31:0] $end
   $var wire 1 # rst $end
   $scope module arbiter_if $end
    $var wire 1 $ raddr_valid $end
    $var wire 32 % raddr [31:0] $end
    $var wire 32 )! rdata [31:0] $end
    $var wire 1 ? rdata_valid $end
    $var wire 1 . waddr_valid $end
    $var wire 32 / waddr [31:0] $end
    $var wire 256 & wdata [255:0] $end
    $var wire 32 0 wmask [31:0] $end
    $var wire 1 ^ read_miss_repair $end
    $var wire 1 _ write_miss_repair $end
    $var wire 32 Z missed_addr [31:0] $end
    $var wire 1 1 repair_resolved $end
   $upscope $end
   $scope module controller_dut $end
    $var wire 1 q clk $end
    $var wire 1 # rst $end
    $scope module arbiter $end
     $var wire 1 $ raddr_valid $end
     $var wire 32 % raddr [31:0] $end
     $var wire 32 )! rdata [31:0] $end
     $var wire 1 ? rdata_valid $end
     $var wire 1 . waddr_valid $end
     $var wire 32 / waddr [31:0] $end
     $var wire 256 & wdata [255:0] $end
     $var wire 32 0 wmask [31:0] $end
     $var wire 1 ^ read_miss_repair $end
     $var wire 1 _ write_miss_repair $end
     $var wire 32 Z missed_addr [31:0] $end
     $var wire 1 1 repair_resolved $end
    $upscope $end
    $var wire 32 -! c [31:0] $end
    $var wire 32 .! b [31:0] $end
    $var wire 32 /! s [31:0] $end
    $var wire 32 0! TAG_BITS [31:0] $end
    $var wire 32 *! DIRTY [31:0] $end
    $var wire 32 *! VALID [31:0] $end
    $var wire 1 $ raddr_valid $end
    $var wire 32 % raddr [31:0] $end
    $var wire 256 I rdata_block [255:0] $end
    $var wire 256 & wdata [255:0] $end
    $var wire 1 . waddr_valid $end
    $var wire 32 / waddr [31:0] $end
    $var wire 32 0 wmask [31:0] $end
    $var wire 1 1 repair_resolved $end
    $var wire 256 Q wdata_reg [255:0] $end
    $var wire 32 Y wmask_reg [31:0] $end
    $var wire 32 Z raddr_reg [31:0] $end
    $var wire 32 [ waddr_reg [31:0] $end
    $var wire 1 \ raddr_valid_reg $end
    $var wire 1 ] waddr_valid_reg $end
    $var wire 32 @ wmask_i [31:0] $end
    $var wire 32 s waddr_i [31:0] $end
    $var wire 256 A wdata_i [255:0] $end
    $var wire 19 t wblock_metadata_i [18:0] $end
    $var wire 1 ^ read_miss_repair $end
    $var wire 19 u rblock_metadata [18:0] $end
    $var wire 1 v rblock_valid $end
    $var wire 1 w rblock_dirty $end
    $var wire 17 x rtag [16:0] $end
    $var wire 1 _ write_miss_repair $end
    $var wire 19 y wblock_metadata [18:0] $end
    $var wire 1 z wblock_valid $end
    $var wire 1 { wblock_dirty $end
    $var wire 17 | wtag [16:0] $end
    $var wire 1 } write_enable $end
    $scope module data_store $end
     $var wire 32 1! NUM_WMASKS [31:0] $end
     $var wire 32 2! DATA_WIDTH [31:0] $end
     $var wire 32 3! ADDR_WIDTH [31:0] $end
     $var wire 32 2! RAM_DEPTH [31:0] $end
     $var wire 32 4! DELAY [31:0] $end
     $var wire 32 *! VERBOSE [31:0] $end
     $var wire 32 *! T_HOLD [31:0] $end
     $var wire 1 q clk0 $end
     $var wire 1 ~ csb0 $end
     $var wire 8 !! addr0 [7:0] $end
     $var wire 32 @ wmask0 [31:0] $end
     $var wire 256 A din0 [255:0] $end
     $var wire 1 q clk1 $end
     $var wire 1 2 csb1 $end
     $var wire 8 3 addr1 [7:0] $end
     $var wire 256 I dout1 [255:0] $end
     $var wire 1 ` csb0_reg $end
     $var wire 32 a wmask0_reg [31:0] $end
     $var wire 8 b addr0_reg [7:0] $end
     $var wire 256 c din0_reg [255:0] $end
     $var wire 1 "! csb1_reg $end
     $var wire 8 #! addr1_reg [7:0] $end
     $scope module MEM_WRITE0 $end
      $scope module unnamedblk1 $end
       $var wire 32 $! i [31:0] $end
      $upscope $end
     $upscope $end
    $upscope $end
    $scope module tag_store0 $end
     $var wire 32 5! DATA_WIDTH [31:0] $end
     $var wire 32 3! ADDR_WIDTH [31:0] $end
     $var wire 32 2! RAM_DEPTH [31:0] $end
     $var wire 32 4! DELAY [31:0] $end
     $var wire 32 *! VERBOSE [31:0] $end
     $var wire 32 *! T_HOLD [31:0] $end
     $var wire 1 q clk0 $end
     $var wire 1 ~ csb0 $end
     $var wire 8 !! addr0 [7:0] $end
     $var wire 19 t din0 [18:0] $end
     $var wire 1 q clk1 $end
     $var wire 1 2 csb1 $end
     $var wire 8 4 addr1 [7:0] $end
     $var wire 19 u dout1 [18:0] $end
     $var wire 1 k csb0_reg $end
     $var wire 8 l addr0_reg [7:0] $end
     $var wire 19 m din0_reg [18:0] $end
     $var wire 1 %! csb1_reg $end
     $var wire 8 &! addr1_reg [7:0] $end
    $upscope $end
    $scope module tag_store1 $end
     $var wire 32 5! DATA_WIDTH [31:0] $end
     $var wire 32 3! ADDR_WIDTH [31:0] $end
     $var wire 32 2! RAM_DEPTH [31:0] $end
     $var wire 32 4! DELAY [31:0] $end
     $var wire 32 *! VERBOSE [31:0] $end
     $var wire 32 *! T_HOLD [31:0] $end
     $var wire 1 q clk0 $end
     $var wire 1 ~ csb0 $end
     $var wire 8 !! addr0 [7:0] $end
     $var wire 19 t din0 [18:0] $end
     $var wire 1 q clk1 $end
     $var wire 1 5 csb1 $end
     $var wire 8 6 addr1 [7:0] $end
     $var wire 19 y dout1 [18:0] $end
     $var wire 1 n csb0_reg $end
     $var wire 8 o addr0_reg [7:0] $end
     $var wire 19 p din0_reg [18:0] $end
     $var wire 1 '! csb1_reg $end
     $var wire 8 (! addr1_reg [7:0] $end
    $upscope $end
   $upscope $end
   $scope module read_miss_and_repair__Vstatic__unnamedblk1 $end
    $var wire 256 7 repaired_block [255:0] $end
   $upscope $end
  $upscope $end
 $upscope $end
$enddefinitions $end


#0
0#
0$
b00000000000000000000000000000000 %
b0000000000000000000000000000000000000000000000000000000000000000000000000000000000000000000000000000000000000000000000000000000000000000000000000000000000000000000000000000000000000000000000000000000000000000000000000000000000000000000000000000000000000000 &
0.
b00000000000000000000000000000000 /
b00000000000000000000000000000000 0
01
12
b00000000 3
b00000000 4
15
b00000000 6
b0000000000000000000000000000000000000000000000000000000000000000000000000000000000000000000000000000000000000000000000000000000000000000000000000000000000000000000000000000000000000000000000000000000000000000000000000000000000000000000000000000000000000000 7
0?
b00000000000000000000000000000000 @
b0000000000000000000000000000000000000000000000000000000000000000000000000000000000000000000000000000000000000000000000000000000000000000000000000000000000000000000000000000000000000000000000000000000000000000000000000000000000000000000000000000000000000000 A
b0000000000000000000000000000000000000000000000000000000000000000000000000000000000000000000000000000000000000000000000000000000000000000000000000000000000000000000000000000000000000000000000000000000000000000000000000000000000000000000000000000000000000000 I
b0000000000000000000000000000000000000000000000000000000000000000000000000000000000000000000000000000000000000000000000000000000000000000000000000000000000000000000000000000000000000000000000000000000000000000000000000000000000000000000000000000000000000000 Q
b00000000000000000000000000000000 Y
b00000000000000000000000000000000 Z
b00000000000000000000000000000000 [
0\
0]
0^
0_
0`
b00000000000000000000000000000000 a
b00000000 b
b0000000000000000000000000000000000000000000000000000000000000000000000000000000000000000000000000000000000000000000000000000000000000000000000000000000000000000000000000000000000000000000000000000000000000000000000000000000000000000000000000000000000000000 c
0k
b00000000 l
b0000000000000000000 m
0n
b00000000 o
b0000000000000000000 p
0q
b00000000000000000000000000000000 r
b00000000000000000000000000000000 s
b0000000000000000001 t
b0000000000000000000 u
0v
0w
b00000000000000000 x
b0000000000000000000 y
0z
0{
b00000000000000000 |
0}
1~
b00000000 !!
0"!
b00000000 #!
b00000000000000000000000000000000 $!
0%!
b00000000 &!
0'!
b00000000 (!
b00000000000000000000000000000000 )!
b00000000000000000000000000000001 *!
r0.5 +!
b00000000000000000000000000001111 -!
b00000000000000000000000000000111 .!
b00000000000000000000000000000000 /!
b00000000000000000000000000010001 0!
b00000000000000000000000000100000 1!
b00000000000000000000000100000000 2!
b00000000000000000000000000001000 3!
b00000000000000000000000000000011 4!
b00000000000000000000000000010011 5!
b00000000000000000000000000000100 6!
b00000000000000000000000010000000 7!
b00000000000000000000000001000000 8!
b00000000000000000000000000000010 9!
#500
1`
1k
b0000000000000000001 m
1n
b0000000000000000001 p
1q
b00000000000000000000000000000001 r
1"!
1%!
1'!
#1000
0q
#1500
1$
b10101010101110111100110011011101 %
02
b10011001 3
b11001100 4
b10101010101110111100110011011101 Z
1\
1q
b00000000000000000000000000000010 r
#2000
0q
#2500
0$
12
0\
1^
1q
b00000000000000000000000000000011 r
0"!
b10011001 #!
0%!
b11001100 &!
#3000
0q
#3500
b0000000000000000000000000000000000010001000100010001000100010001001000100010001000100010001000100011001100110011001100110011001101000100010001000100010001000100010101010101010101010101010101010110011001100110011001100110011001110111011101110111011101110111 &
1.
b10101010101110111100110011011101 /
b11111111111111111111111111111111 0
11
05
b11001100 6
b0000000000000000000000000000000000010001000100010001000100010001001000100010001000100010001000100011001100110011001100110011001101000100010001000100010001000100010101010101010101010101010101010110011001100110011001100110011001110111011101110111011101110111 7
b11111111111111111111111111111111 @
b0000000000000000000000000000000000010001000100010001000100010001001000100010001000100010001000100011001100110011001100110011001101000100010001000100010001000100010101010101010101010101010101010110011001100110011001100110011001110111011101110111011101110111 A
0^
0`
b11111111111111111111111111111111 a
b10011001 b
b0000000000000000000000000000000000010001000100010001000100010001001000100010001000100010001000100011001100110011001100110011001101000100010001000100010001000100010101010101010101010101010101010110011001100110011001100110011001110111011101110111011101110111 c
0k
b10011001 l
b1010101010111011101 m
0n
b10011001 o
b1010101010111011101 p
1q
b00000000000000000000000000000100 r
b10101010101110111100110011011101 s
b1010101010111011101 t
1}
0~
b10011001 !!
#4000
0q
b00000000000000000000000000100000 $!
#4500
1#
b00000000000000000000000000000000 %
b0000000000000000000000000000000000000000000000000000000000000000000000000000000000000000000000000000000000000000000000000000000000000000000000000000000000000000000000000000000000000000000000000000000000000000000000000000000000000000000000000000000000000000 &
0.
b00000000000000000000000000000000 /
b00000000000000000000000000000000 0
01
b00000000 3
b00000000 4
15
b00000000 6
b00000000000000000000000000000000 @
b0000000000000000000000000000000000000000000000000000000000000000000000000000000000000000000000000000000000000000000000000000000000000000000000000000000000000000000000000000000000000000000000000000000000000000000000000000000000000000000000000000000000000000 A
b00000000000000000000000000000000 Z
1`
b00000000000000000000000000000000 a
b00000000 b
b0000000000000000000000000000000000000000000000000000000000000000000000000000000000000000000000000000000000000000000000000000000000000000000000000000000000000000000000000000000000000000000000000000000000000000000000000000000000000000000000000000000000000000 c
1k
b00000000 l
b0000000000000000001 m
1n
b00000000 o
b0000000000000000001 p
1q
b00000000000000000000000000000101 r
b00000000000000000000000000000000 s
b0000000000000000001 t
0}
1~
b00000000 !!
1"!
1%!
0'!
b11001100 (!
#5000
0q
#5500
1q
b00000000000000000000000000000110 r
#6000
0q
#6500
1q
b00000000000000000000000000000111 r
b00000000 #!
b00000000 &!
1'!
b00000000 (!
#7000
0q
#7500
1q
b00000000000000000000000000001000 r
#8000
0q
#8500
1q
b00000000000000000000000000001001 r
#9000
0q
#9500
1q
b00000000000000000000000000001010 r
#10000
0q
#10500
1q
b00000000000000000000000000001011 r
#11000
0q
#11500
1q
b00000000000000000000000000001100 r
#12000
0q
#12500
1q
b00000000000000000000000000001101 r
#13000
0q
#13500
1q
b00000000000000000000000000001110 r
#14000
0q
#14500
1q
b00000000000000000000000000001111 r
#15000
0q
#15500
1q
b00000000000000000000000000010000 r
#16000
0q
#16500
1q
b00000000000000000000000000010001 r
#17000
0q
#17500
1q
b00000000000000000000000000010010 r
#18000
0q
#18500
1q
b00000000000000000000000000010011 r
#19000
0q
#19500
1q
b00000000000000000000000000010100 r
#20000
0q
#20500
1q
b00000000000000000000000000010101 r
#21000
0q
#21500
1q
b00000000000000000000000000010110 r
#22000
0q
#22500
1q
b00000000000000000000000000010111 r
#23000
0q
#23500
1q
b00000000000000000000000000011000 r
#24000
0q
#24500
1q
b00000000000000000000000000011001 r
#25000
0q
#25500
1q
b00000000000000000000000000011010 r
#26000
0q
#26500
1q
b00000000000000000000000000011011 r
#27000
0q
#27500
1q
b00000000000000000000000000011100 r
#28000
0q
#28500
1q
b00000000000000000000000000011101 r
#29000
0q
#29500
1q
b00000000000000000000000000011110 r
#30000
0q
#30500
1q
b00000000000000000000000000011111 r
#31000
0q
#31500
1q
b00000000000000000000000000100000 r
#32000
0q
#32500
1q
b00000000000000000000000000100001 r
#33000
0q
#33500
1q
b00000000000000000000000000100010 r
#34000
0q
#34500
1q
b00000000000000000000000000100011 r
#35000
0q
#35500
1q
b00000000000000000000000000100100 r
#36000
0q
#36500
1q
b00000000000000000000000000100101 r
#37000
0q
#37500
1q
b00000000000000000000000000100110 r
#38000
0q
#38500
1q
b00000000000000000000000000100111 r
#39000
0q
#39500
1q
b00000000000000000000000000101000 r
#40000
0q
#40500
1q
b00000000000000000000000000101001 r
#41000
0q
#41500
1q
b00000000000000000000000000101010 r
#42000
0q
#42500
1q
b00000000000000000000000000101011 r
#43000
0q
#43500
1q
b00000000000000000000000000101100 r
#44000
0q
#44500
1q
b00000000000000000000000000101101 r
#45000
0q
#45500
1q
b00000000000000000000000000101110 r
#46000
0q
#46500
1q
b00000000000000000000000000101111 r
#47000
0q
#47500
1q
b00000000000000000000000000110000 r
#48000
0q
#48500
1q
b00000000000000000000000000110001 r
#49000
0q
#49500
1q
b00000000000000000000000000110010 r
#50000
0q
#50500
1q
b00000000000000000000000000110011 r
#51000
0q
#51500
1q
b00000000000000000000000000110100 r
#52000
0q
#52500
1q
b00000000000000000000000000110101 r
#53000
0q
#53500
1q
b00000000000000000000000000110110 r
#54000
0q
#54500
1q
b00000000000000000000000000110111 r
