Processor/tb_dCacheController.vcd
$version Generated by VerilatedVcd $end
$timescale 1ps $end
 $scope module TOP $end
  $scope module CORE_PKG $end
   $var wire 32 I$ WORD_SIZE [31:0] $end
   $var wire 32 J$ NUM_FUS [31:0] $end
   $var wire 32 D# RS_ENTRIES [31:0] $end
   $var wire 32 B# NUM_PREGS [31:0] $end
   $var wire 32 I$ NUM_AREGS [31:0] $end
   $var wire 32 K$ NUM_ROB_ENTS [31:0] $end
   $var wire 32 J$ RETIRE_WIDTH [31:0] $end
   $var wire 32 L$ DISP_WIDTH [31:0] $end
   $var wire 32 K$ DISP_DEPTH [31:0] $end
   $var wire 32 L$ RENAME_WIDTH [31:0] $end
  $upscope $end
  $scope module tb_dCacheController $end
   $var wire 32 ;# CLK_PERIOD [31:0] $end
   $var real 64 <# DUTY_CYCLE $end
   $var wire 1 2# clk $end
   $var wire 32 3# cycle_count [31:0] $end
   $var wire 1 # rst $end
   $scope module arbiter_if $end
    $var wire 1 $ raddr_valid $end
    $var wire 32 % raddr [31:0] $end
    $var wire 32 9# rdata [31:0] $end
    $var wire 1 :# rdata_valid $end
    $var wire 1 F waddr_valid $end
    $var wire 32 G waddr [31:0] $end
    $var wire 1024 & wdata [1023:0] $end
    $var wire 128 H wmask [127:0] $end
    $var wire 1 0" read_repair_request $end
    $var wire 1 7# write_miss_repair $end
    $var wire 32 r missed_addr [31:0] $end
    $var wire 1 L repair_resolved $end
    $var wire 1 M$ sent_repair $end
   $upscope $end
   $scope module controller_dut $end
    $var wire 1 2# clk $end
    $var wire 1 # rst $end
    $scope module arbiter $end
     $var wire 1 $ raddr_valid $end
     $var wire 32 % raddr [31:0] $end
     $var wire 32 9# rdata [31:0] $end
     $var wire 1 :# rdata_valid $end
     $var wire 1 F waddr_valid $end
     $var wire 32 G waddr [31:0] $end
     $var wire 1024 & wdata [1023:0] $end
     $var wire 128 H wmask [127:0] $end
     $var wire 1 0" read_repair_request $end
     $var wire 1 7# write_miss_repair $end
     $var wire 32 r missed_addr [31:0] $end
     $var wire 1 L repair_resolved $end
     $var wire 1 M$ sent_repair $end
    $upscope $end
    $var wire 32 ># c [31:0] $end
    $var wire 32 ?# b [31:0] $end
    $var wire 32 @# s [31:0] $end
    $var wire 32 A# TAG_BITS [31:0] $end
    $var wire 32 ;# DIRTY [31:0] $end
    $var wire 32 ;# VALID [31:0] $end
    $var wire 1 $ raddr_valid $end
    $var wire 32 % raddr [31:0] $end
    $var wire 1024 h" rdata_block [1023:0] $end
    $var wire 1024 & wdata [1023:0] $end
    $var wire 1 F waddr_valid $end
    $var wire 32 G waddr [31:0] $end
    $var wire 128 H wmask [127:0] $end
    $var wire 1 L repair_resolved $end
    $var wire 32 p raddr_reg0 [31:0] $end
    $var wire 32 q raddr_reg1 [31:0] $end
    $var wire 32 r raddr_reg2 [31:0] $end
    $var wire 1 s raddr_valid_reg0 $end
    $var wire 1 t raddr_valid_reg1 $end
    $var wire 1 u raddr_valid_reg2 $end
    $var wire 1024 v wdata_reg0 [1023:0] $end
    $var wire 1024 8! wdata_reg1 [1023:0] $end
    $var wire 128 X! wmask_reg0 [127:0] $end
    $var wire 128 \! wmask_reg1 [127:0] $end
    $var wire 32 `! waddr_reg0 [31:0] $end
    $var wire 32 a! waddr_reg1 [31:0] $end
    $var wire 1 b! waddr_valid_reg0 $end
    $var wire 1 c! waddr_valid_reg1 $end
    $var wire 1 d! rdata_valid $end
    $var wire 128 e! wmask_i [127:0] $end
    $var wire 32 i! waddr_i [31:0] $end
    $var wire 1024 j! wdata_i [1023:0] $end
    $var wire 19 ," wblock_metadata_i [18:0] $end
    $var wire 19 4# wblock_metadata_o [18:0] $end
    $var wire 1 -" read_tag $end
    $var wire 8 M read_address [7:0] $end
    $var wire 1 ." repairing $end
    $var wire 1 5# repairing_next $end
    $var wire 1 /" repairing_prev $end
    $var wire 1 0" read_repair_request $end
    $var wire 19 *# rblock_metadata [18:0] $end
    $var wire 1 +# rblock_valid $end
    $var wire 1 ,# rblock_dirty $end
    $var wire 17 -# rtag [16:0] $end
    $var wire 1 6# read_hit $end
    $var wire 1 7# write_miss_repair $end
    $var wire 19 .# wblock_metadata [18:0] $end
    $var wire 1 /# wblock_valid $end
    $var wire 1 0# wblock_dirty $end
    $var wire 17 1# wtag [16:0] $end
    $var wire 1 1" write_enable $end
    $scope module data_store $end
     $var wire 32 B# NUM_WMASKS [31:0] $end
     $var wire 32 C# DATA_WIDTH [31:0] $end
     $var wire 32 D# ADDR_WIDTH [31:0] $end
     $var wire 32 E# RAM_DEPTH [31:0] $end
     $var wire 32 @# DELAY [31:0] $end
     $var wire 32 ;# VERBOSE [31:0] $end
     $var wire 32 @# T_HOLD [31:0] $end
     $var wire 1 2# clk0 $end
     $var wire 1 2" csb0 $end
     $var wire 8 3" addr0 [7:0] $end
     $var wire 128 e! wmask0 [127:0] $end
     $var wire 1024 j! din0 [1023:0] $end
     $var wire 1 2# clk1 $end
     $var wire 1 4" csb1 $end
     $var wire 8 5" addr1 [7:0] $end
     $var wire 1024 h" dout1 [1023:0] $end
     $var wire 1 6" csb0_reg $end
     $var wire 128 7" wmask0_reg [127:0] $end
     $var wire 8 ;" addr0_reg [7:0] $end
     $var wire 1024 <" din0_reg [1023:0] $end
     $var wire 1 \" csb1_reg $end
     $var wire 8 ]" addr1_reg [7:0] $end
     $scope module MEM_WRITE0 $end
      $scope module unnamedblk1 $end
       $var wire 32 8# i [31:0] $end
      $upscope $end
     $upscope $end
    $upscope $end
    $scope module tag_store0 $end
     $var wire 32 F# DATA_WIDTH [31:0] $end
     $var wire 32 D# ADDR_WIDTH [31:0] $end
     $var wire 32 E# RAM_DEPTH [31:0] $end
     $var wire 32 @# DELAY [31:0] $end
     $var wire 32 ;# VERBOSE [31:0] $end
     $var wire 32 @# T_HOLD [31:0] $end
     $var wire 1 2# clk0 $end
     $var wire 1 2" csb0 $end
     $var wire 8 3" addr0 [7:0] $end
     $var wire 19 ," din0 [18:0] $end
     $var wire 1 2# clk1 $end
     $var wire 1 4" csb1 $end
     $var wire 8 5" addr1 [7:0] $end
     $var wire 19 *# dout1 [18:0] $end
     $var wire 1 ^" csb0_reg $end
     $var wire 8 _" addr0_reg [7:0] $end
     $var wire 19 `" din0_reg [18:0] $end
     $var wire 1 a" csb1_reg $end
     $var wire 8 b" addr1_reg [7:0] $end
    $upscope $end
    $scope module tag_store1 $end
     $var wire 32 F# DATA_WIDTH [31:0] $end
     $var wire 32 D# ADDR_WIDTH [31:0] $end
     $var wire 32 E# RAM_DEPTH [31:0] $end
     $var wire 32 @# DELAY [31:0] $end
     $var wire 32 ;# VERBOSE [31:0] $end
     $var wire 32 @# T_HOLD [31:0] $end
     $var wire 1 2# clk0 $end
     $var wire 1 2" csb0 $end
     $var wire 8 3" addr0 [7:0] $end
     $var wire 19 ," din0 [18:0] $end
     $var wire 1 2# clk1 $end
     $var wire 1 N csb1 $end
     $var wire 8 O addr1 [7:0] $end
     $var wire 19 .# dout1 [18:0] $end
     $var wire 1 c" csb0_reg $end
     $var wire 8 d" addr0_reg [7:0] $end
     $var wire 19 e" din0_reg [18:0] $end
     $var wire 1 f" csb1_reg $end
     $var wire 8 g" addr1_reg [7:0] $end
    $upscope $end
   $upscope $end
   $scope module read_hit__Vstatic__unnamedblk2 $end
    $var wire 1024 G# repaired_block [1023:0] $end
   $upscope $end
   $scope module read_miss_and_repair__Vstatic__unnamedblk1 $end
    $var wire 1024 P repaired_block [1023:0] $end
   $upscope $end
   $scope module write_hit__Vstatic__unnamedblk3 $end
    $var wire 1024 g# new_block [1023:0] $end
   $upscope $end
   $scope module write_miss__Vstatic__unnamedblk4 $end
    $var wire 1024 )$ new_block [1023:0] $end
   $upscope $end
  $upscope $end
 $upscope $end
$enddefinitions $end


#0
1#
0$
b00000000000000000000000000000000 %
b0000000000000000000000000000000000000000000000000000000000000000000000000000000000000000000000000000000000000000000000000000000000000000000000000000000000000000000000000000000000000000000000000000000000000000000000000000000000000000000000000000000000000000000000000000000000000000000000000000000000000000000000000000000000000000000000000000000000000000000000000000000000000000000000000000000000000000000000000000000000000000000000000000000000000000000000000000000000000000000000000000000000000000000000000000000000000000000000000000000000000000000000000000000000000000000000000000000000000000000000000000000000000000000000000000000000000000000000000000000000000000000000000000000000000000000000000000000000000000000000000000000000000000000000000000000000000000000000000000000000000000000000000000000000000000000000000000000000000000000000000000000000000000000000000000000000000000000000000000000000000000000000000000000000000000000000000000000000000000000000000000000000000000000000000000000000000000000000000000000000000000 &
0F
b00000000000000000000000000000000 G
b00000000000000000000000000000000000000000000000000000000000000000000000000000000000000000000000000000000000000000000000000000000 H
0L
b00000000 M
1N
b00000000 O
b0000000000000000000000000000000000000000000000000000000000000000000000000000000000000000000000000000000000000000000000000000000000000000000000000000000000000000000000000000000000000000000000000000000000000000000000000000000000000000000000000000000000000000000000000000000000000000000000000000000000000000000000000000000000000000000000000000000000000000000000000000000000000000000000000000000000000000000000000000000000000000000000000000000000000000000000000000000000000000000000000000000000000000000000000000000000000000000000000000000000000000000000000000000000000000000000000000000000000000000000000000000000000000000000000000000000000000000000000000000000000000000000000000000000000000000000000000000000000000000000000000000000000000000000000000000000000000000000000000000000000000000000000000000000000000000000000000000000000000000000000000000000000000000000000000000000000000000000000000000000000000000000000000000000000000000000000000000000000000000000000000000000000000000000000000000000000000000000000000000000000000 P
b00000000000000000000000000000000 p
b00000000000000000000000000000000 q
b00000000000000000000000000000000 r
0s
0t
0u
b0000000000000000000000000000000000000000000000000000000000000000000000000000000000000000000000000000000000000000000000000000000000000000000000000000000000000000000000000000000000000000000000000000000000000000000000000000000000000000000000000000000000000000000000000000000000000000000000000000000000000000000000000000000000000000000000000000000000000000000000000000000000000000000000000000000000000000000000000000000000000000000000000000000000000000000000000000000000000000000000000000000000000000000000000000000000000000000000000000000000000000000000000000000000000000000000000000000000000000000000000000000000000000000000000000000000000000000000000000000000000000000000000000000000000000000000000000000000000000000000000000000000000000000000000000000000000000000000000000000000000000000000000000000000000000000000000000000000000000000000000000000000000000000000000000000000000000000000000000000000000000000000000000000000000000000000000000000000000000000000000000000000000000000000000000000000000000000000000000000000000000 v
b0000000000000000000000000000000000000000000000000000000000000000000000000000000000000000000000000000000000000000000000000000000000000000000000000000000000000000000000000000000000000000000000000000000000000000000000000000000000000000000000000000000000000000000000000000000000000000000000000000000000000000000000000000000000000000000000000000000000000000000000000000000000000000000000000000000000000000000000000000000000000000000000000000000000000000000000000000000000000000000000000000000000000000000000000000000000000000000000000000000000000000000000000000000000000000000000000000000000000000000000000000000000000000000000000000000000000000000000000000000000000000000000000000000000000000000000000000000000000000000000000000000000000000000000000000000000000000000000000000000000000000000000000000000000000000000000000000000000000000000000000000000000000000000000000000000000000000000000000000000000000000000000000000000000000000000000000000000000000000000000000000000000000000000000000000000000000000000000000000000000000000 8!
b00000000000000000000000000000000000000000000000000000000000000000000000000000000000000000000000000000000000000000000000000000000 X!
b00000000000000000000000000000000000000000000000000000000000000000000000000000000000000000000000000000000000000000000000000000000 \!
b00000000000000000000000000000000 `!
b00000000000000000000000000000000 a!
0b!
0c!
0d!
b00000000000000000000000000000000000000000000000000000000000000000000000000000000000000000000000000000000000000000000000000000000 e!
b00000000000000000000000000000000 i!
b0000000000000000000000000000000000000000000000000000000000000000000000000000000000000000000000000000000000000000000000000000000000000000000000000000000000000000000000000000000000000000000000000000000000000000000000000000000000000000000000000000000000000000000000000000000000000000000000000000000000000000000000000000000000000000000000000000000000000000000000000000000000000000000000000000000000000000000000000000000000000000000000000000000000000000000000000000000000000000000000000000000000000000000000000000000000000000000000000000000000000000000000000000000000000000000000000000000000000000000000000000000000000000000000000000000000000000000000000000000000000000000000000000000000000000000000000000000000000000000000000000000000000000000000000000000000000000000000000000000000000000000000000000000000000000000000000000000000000000000000000000000000000000000000000000000000000000000000000000000000000000000000000000000000000000000000000000000000000000000000000000000000000000000000000000000000000000000000000000000000000000 j!
b0000000000000000000 ,"
0-"
0."
0/"
00"
01"
12"
b00000000 3"
14"
b00000000 5"
06"
b00000000000000000000000000000000000000000000000000000000000000000000000000000000000000000000000000000000000000000000000000000000 7"
b00000000 ;"
b0000000000000000000000000000000000000000000000000000000000000000000000000000000000000000000000000000000000000000000000000000000000000000000000000000000000000000000000000000000000000000000000000000000000000000000000000000000000000000000000000000000000000000000000000000000000000000000000000000000000000000000000000000000000000000000000000000000000000000000000000000000000000000000000000000000000000000000000000000000000000000000000000000000000000000000000000000000000000000000000000000000000000000000000000000000000000000000000000000000000000000000000000000000000000000000000000000000000000000000000000000000000000000000000000000000000000000000000000000000000000000000000000000000000000000000000000000000000000000000000000000000000000000000000000000000000000000000000000000000000000000000000000000000000000000000000000000000000000000000000000000000000000000000000000000000000000000000000000000000000000000000000000000000000000000000000000000000000000000000000000000000000000000000000000000000000000000000000000000000000000000 <"
0\"
b00000000 ]"
0^"
b00000000 _"
b0000000000000000000 `"
0a"
b00000000 b"
0c"
b00000000 d"
b0000000000000000000 e"
0f"
b00000000 g"
b0000000000000000000000000000000000000000000000000000000000000000000000000000000000000000000000000000000000000000000000000000000000000000000000000000000000000000000000000000000000000000000000000000000000000000000000000000000000000000000000000000000000000000000000000000000000000000000000000000000000000000000000000000000000000000000000000000000000000000000000000000000000000000000000000000000000000000000000000000000000000000000000000000000000000000000000000000000000000000000000000000000000000000000000000000000000000000000000000000000000000000000000000000000000000000000000000000000000000000000000000000000000000000000000000000000000000000000000000000000000000000000000000000000000000000000000000000000000000000000000000000000000000000000000000000000000000000000000000000000000000000000000000000000000000000000000000000000000000000000000000000000000000000000000000000000000000000000000000000000000000000000000000000000000000000000000000000000000000000000000000000000000000000000000000000000000000000000000000000000000000000 h"
b0000000000000000000 *#
0+#
0,#
b00000000000000000 -#
b0000000000000000000 .#
0/#
00#
b00000000000000000 1#
02#
b00000000000000000000000000000000 3#
b0000000000000000000 4#
05#
06#
07#
b00000000000000000000000000000000 8#
b00000000000000000000000000000000 9#
0:#
b00000000000000000000000000000001 ;#
r0.5 <#
b00000000000000000000000000001111 >#
b00000000000000000000000000000111 ?#
b00000000000000000000000000000000 @#
b00000000000000000000000000010001 A#
b00000000000000000000000010000000 B#
b00000000000000000000010000000000 C#
b00000000000000000000000000001000 D#
b00000000000000000000000100000000 E#
b00000000000000000000000000010011 F#
b0000000000000000000000000000000000000000000000000000000000000000000000000000000000000000000000000000000000000000000000000000000000000000000000000000000000000000000000000000000000000000000000000000000000000000000000000000000000000000000000000000000000000000000000000000000000000000000000000000000000000000000000000000000000000000000000000000000000000000000000000000000000000000000000000000000000000000000000000000000000000000000000000000000000000000000000000000000000000000000000000000000000000000000000000000000000000000000000000000000000000000000000000000000000000000000000000000000000000000000000000000000000000000000000000000000000000000000000000000000000000000000000000000000000000000000000000000000000000000000000000000000000000000000000000000000000000000000000000000000000000000000000000000000000000000000000000000000000000000000000000000000000000000000000000000000000000000000000000000000000000000000000000000000000000000000000000000000000000000000000000000000000000000000000000000000000000000000000000000000000000000 G#
b0000000000000000000000000000000000000000000000000000000000000000000000000000000000000000000000000000000000000000000000000000000000000000000000000000000000000000000000000000000000000000000000000000000000000000000000000000000000000000000000000000000000000000000000000000000000000000000000000000000000000000000000000000000000000000000000000000000000000000000000000000000000000000000000000000000000000000000000000000000000000000000000000000000000000000000000000000000000000000000000000000000000000000000000000000000000000000000000000000000000000000000000000000000000000000000000000000000000000000000000000000000000000000000000000000000000000000000000000000000000000000000000000000000000000000000000000000000000000000000000000000000000000000000000000000000000000000000000000000000000000000000000000000000000000000000000000000000000000000000000000000000000000000000000000000000000000000000000000000000000000000000000000000000000000000000000000000000000000000000000000000000000000000000000000000000000000000000000000000000000000000 g#
b0000000000000000000000000000000000000000000000000000000000000000000000000000000000000000000000000000000000000000000000000000000000000000000000000000000000000000000000000000000000000000000000000000000000000000000000000000000000000000000000000000000000000000000000000000000000000000000000000000000000000000000000000000000000000000000000000000000000000000000000000000000000000000000000000000000000000000000000000000000000000000000000000000000000000000000000000000000000000000000000000000000000000000000000000000000000000000000000000000000000000000000000000000000000000000000000000000000000000000000000000000000000000000000000000000000000000000000000000000000000000000000000000000000000000000000000000000000000000000000000000000000000000000000000000000000000000000000000000000000000000000000000000000000000000000000000000000000000000000000000000000000000000000000000000000000000000000000000000000000000000000000000000000000000000000000000000000000000000000000000000000000000000000000000000000000000000000000000000000000000000000 )$
b00000000000000000000000000100000 I$
b00000000000000000000000000000100 J$
b00000000000000000000000001000000 K$
b00000000000000000000000000000010 L$
0M$
#500
0#
16"
1\"
1^"
1a"
1c"
1f"
12#
b00000000000000000000000000000001 3#
#1000
02#
#1500
1$
b10101010101110111100110011011101 %
b10011001 M
b10101010101110111100110011011101 p
1s
1-"
04"
b10011001 5"
12#
b00000000000000000000000000000010 3#
#2000
02#
#2500
0$
b00000000000000000000000000000000 %
b00000000 M
b00000000000000000000000000000000 p
b10101010101110111100110011011101 q
0s
1t
0-"
b00000000 5"
0\"
b10011001 ]"
0a"
b10011001 b"
12#
b00000000000000000000000000000011 3#
#3000
02#
#3500
b00000000000000000000000000000000 q
b10101010101110111100110011011101 r
0t
1u
1d!
14"
b00000000 ]"
b00000000 b"
12#
b00000000000000000000000000000100 3#
1:#
#4000
02#
#4500
b00000000000000000000000000000000 r
0u
0d!
10"
1\"
1a"
12#
b00000000000000000000000000000101 3#
15#
0:#
#5000
02#
#5500
b0000000000000000000000000000000000010001000100010001000100010001001000100010001000100010001000100011001100110011001100110011001101000100010001000100010001000100010101010101010101010101010101010110011001100110011001100110011001110111011101110111011101110111000000000000000000000000000000000001000100010001000100010001000100100010001000100010001000100010001100110011001100110011001100110100010001000100010001000100010001010101010101010101010101010101011001100110011001100110011001100111011101110111011101110111011100000000000000000000000000000000000100010001000100010001000100010010001000100010001000100010001000110011001100110011001100110011010001000100010001000100010001000101010101010101010101010101010101100110011001100110011001100110011101110111011101110111011101110000000000000000000000000000000000010001000100010001000100010001001000100010001000100010001000100011001100110011001100110011001101000100010001000100010001000100010101010101010101010101010101010110011001100110011001100110011001110111011101110111011101110111 &
1F
b11111111111111111111111111111111111111111111111111111111111111111111111111111111111111111111111111111111111111111111111111111111 H
0N
b0000000000000000000000000000000000010001000100010001000100010001001000100010001000100010001000100011001100110011001100110011001101000100010001000100010001000100010101010101010101010101010101010110011001100110011001100110011001110111011101110111011101110111000000000000000000000000000000000001000100010001000100010001000100100010001000100010001000100010001100110011001100110011001100110100010001000100010001000100010001010101010101010101010101010101011001100110011001100110011001100111011101110111011101110111011100000000000000000000000000000000000100010001000100010001000100010010001000100010001000100010001000110011001100110011001100110011010001000100010001000100010001000101010101010101010101010101010101100110011001100110011001100110011101110111011101110111011101110000000000000000000000000000000000010001000100010001000100010001001000100010001000100010001000100011001100110011001100110011001101000100010001000100010001000100010101010101010101010101010101010110011001100110011001100110011001110111011101110111011101110111 P
1."
00"
0f"
12#
b00000000000000000000000000000110 3#
#6000
02#
#6500
0F
1L
1N
b0000000000000000000000000000000000010001000100010001000100010001001000100010001000100010001000100011001100110011001100110011001101000100010001000100010001000100010101010101010101010101010101010110011001100110011001100110011001110111011101110111011101110111000000000000000000000000000000000001000100010001000100010001000100100010001000100010001000100010001100110011001100110011001100110100010001000100010001000100010001010101010101010101010101010101011001100110011001100110011001100111011101110111011101110111011100000000000000000000000000000000000100010001000100010001000100010010001000100010001000100010001000110011001100110011001100110011010001000100010001000100010001000101010101010101010101010101010101100110011001100110011001100110011101110111011101110111011101110000000000000000000000000000000000010001000100010001000100010001001000100010001000100010001000100011001100110011001100110011001101000100010001000100010001000100010101010101010101010101010101010110011001100110011001100110011001110111011101110111011101110111 v
b11111111111111111111111111111111111111111111111111111111111111111111111111111111111111111111111111111111111111111111111111111111 X!
b11111111111111111111111111111111111111111111111111111111111111111111111111111111111111111111111111111111111111111111111111111111 e!
b0000000000000000000000000000000000010001000100010001000100010001001000100010001000100010001000100011001100110011001100110011001101000100010001000100010001000100010101010101010101010101010101010110011001100110011001100110011001110111011101110111011101110111000000000000000000000000000000000001000100010001000100010001000100100010001000100010001000100010001100110011001100110011001100110100010001000100010001000100010001010101010101010101010101010101011001100110011001100110011001100111011101110111011101110111011100000000000000000000000000000000000100010001000100010001000100010010001000100010001000100010001000110011001100110011001100110011010001000100010001000100010001000101010101010101010101010101010101100110011001100110011001100110011101110111011101110111011101110000000000000000000000000000000000010001000100010001000100010001001000100010001000100010001000100011001100110011001100110011001101000100010001000100010001000100010101010101010101010101010101010110011001100110011001100110011001110111011101110111011101110111 j!
b0000000000000000001 ,"
0."
1/"
11"
02"
1f"
12#
b00000000000000000000000000000111 3#
05#
#7000
02#
#7500
b0000000000000000000000000000000000000000000000000000000000000000000000000000000000000000000000000000000000000000000000000000000000000000000000000000000000000000000000000000000000000000000000000000000000000000000000000000000000000000000000000000000000000000000000000000000000000000000000000000000000000000000000000000000000000000000000000000000000000000000000000000000000000000000000000000000000000000000000000000000000000000000000000000000000000000000000000000000000000000000000000000000000000000000000000000000000000000000000000000000000000000000000000000000000000000000000000000000000000000000000000000000000000000000000000000000000000000000000000000000000000000000000000000000000000000000000000000000000000000000000000000000000000000000000000000000000000000000000000000000000000000000000000000000000000000000000000000000000000000000000000000000000000000000000000000000000000000000000000000000000000000000000000000000000000000000000000000000000000000000000000000000000000000000000000000000000000000000000000000000000000000 &
b00000000000000000000000000000000000000000000000000000000000000000000000000000000000000000000000000000000000000000000000000000000 H
0L
b0000000000000000000000000000000000000000000000000000000000000000000000000000000000000000000000000000000000000000000000000000000000000000000000000000000000000000000000000000000000000000000000000000000000000000000000000000000000000000000000000000000000000000000000000000000000000000000000000000000000000000000000000000000000000000000000000000000000000000000000000000000000000000000000000000000000000000000000000000000000000000000000000000000000000000000000000000000000000000000000000000000000000000000000000000000000000000000000000000000000000000000000000000000000000000000000000000000000000000000000000000000000000000000000000000000000000000000000000000000000000000000000000000000000000000000000000000000000000000000000000000000000000000000000000000000000000000000000000000000000000000000000000000000000000000000000000000000000000000000000000000000000000000000000000000000000000000000000000000000000000000000000000000000000000000000000000000000000000000000000000000000000000000000000000000000000000000000000000000000000000000 v
b0000000000000000000000000000000000010001000100010001000100010001001000100010001000100010001000100011001100110011001100110011001101000100010001000100010001000100010101010101010101010101010101010110011001100110011001100110011001110111011101110111011101110111000000000000000000000000000000000001000100010001000100010001000100100010001000100010001000100010001100110011001100110011001100110100010001000100010001000100010001010101010101010101010101010101011001100110011001100110011001100111011101110111011101110111011100000000000000000000000000000000000100010001000100010001000100010010001000100010001000100010001000110011001100110011001100110011010001000100010001000100010001000101010101010101010101010101010101100110011001100110011001100110011101110111011101110111011101110000000000000000000000000000000000010001000100010001000100010001001000100010001000100010001000100011001100110011001100110011001101000100010001000100010001000100010101010101010101010101010101010110011001100110011001100110011001110111011101110111011101110111 8!
b00000000000000000000000000000000000000000000000000000000000000000000000000000000000000000000000000000000000000000000000000000000 X!
b11111111111111111111111111111111111111111111111111111111111111111111111111111111111111111111111111111111111111111111111111111111 \!
b00000000000000000000000000000000000000000000000000000000000000000000000000000000000000000000000000000000000000000000000000000000 e!
b0000000000000000000000000000000000000000000000000000000000000000000000000000000000000000000000000000000000000000000000000000000000000000000000000000000000000000000000000000000000000000000000000000000000000000000000000000000000000000000000000000000000000000000000000000000000000000000000000000000000000000000000000000000000000000000000000000000000000000000000000000000000000000000000000000000000000000000000000000000000000000000000000000000000000000000000000000000000000000000000000000000000000000000000000000000000000000000000000000000000000000000000000000000000000000000000000000000000000000000000000000000000000000000000000000000000000000000000000000000000000000000000000000000000000000000000000000000000000000000000000000000000000000000000000000000000000000000000000000000000000000000000000000000000000000000000000000000000000000000000000000000000000000000000000000000000000000000000000000000000000000000000000000000000000000000000000000000000000000000000000000000000000000000000000000000000000000000000000000000000000000 j!
b0000000000000000000 ,"
0/"
01"
12"
06"
b11111111111111111111111111111111111111111111111111111111111111111111111111111111111111111111111111111111111111111111111111111111 7"
b0000000000000000000000000000000000010001000100010001000100010001001000100010001000100010001000100011001100110011001100110011001101000100010001000100010001000100010101010101010101010101010101010110011001100110011001100110011001110111011101110111011101110111000000000000000000000000000000000001000100010001000100010001000100100010001000100010001000100010001100110011001100110011001100110100010001000100010001000100010001010101010101010101010101010101011001100110011001100110011001100111011101110111011101110111011100000000000000000000000000000000000100010001000100010001000100010010001000100010001000100010001000110011001100110011001100110011010001000100010001000100010001000101010101010101010101010101010101100110011001100110011001100110011101110111011101110111011101110000000000000000000000000000000000010001000100010001000100010001001000100010001000100010001000100011001100110011001100110011001101000100010001000100010001000100010101010101010101010101010101010110011001100110011001100110011001110111011101110111011101110111 <"
0^"
b0000000000000000001 `"
0c"
b0000000000000000001 e"
12#
b00000000000000000000000000001000 3#
#8000
02#
b00000000000000000000000010000000 8#
#8500
b0000000000000000000000000000000000000000000000000000000000000000000000000000000000000000000000000000000000000000000000000000000000000000000000000000000000000000000000000000000000000000000000000000000000000000000000000000000000000000000000000000000000000000000000000000000000000000000000000000000000000000000000000000000000000000000000000000000000000000000000000000000000000000000000000000000000000000000000000000000000000000000000000000000000000000000000000000000000000000000000000000000000000000000000000000000000000000000000000000000000000000000000000000000000000000000000000000000000000000000000000000000000000000000000000000000000000000000000000000000000000000000000000000000000000000000000000000000000000000000000000000000000000000000000000000000000000000000000000000000000000000000000000000000000000000000000000000000000000000000000000000000000000000000000000000000000000000000000000000000000000000000000000000000000000000000000000000000000000000000000000000000000000000000000000000000000000000000000000000000000000000 8!
b00000000000000000000000000000000000000000000000000000000000000000000000000000000000000000000000000000000000000000000000000000000 \!
b11111111111111111111111111111111111111111111111111111111111111111111111111111111111111111111111111111111111111111111111111111111 e!
b0000000000000000000000000000000000010001000100010001000100010001001000100010001000100010001000100011001100110011001100110011001101000100010001000100010001000100010101010101010101010101010101010110011001100110011001100110011001110111011101110111011101110111000000000000000000000000000000000001000100010001000100010001000100100010001000100010001000100010001100110011001100110011001100110100010001000100010001000100010001010101010101010101010101010101011001100110011001100110011001100111011101110111011101110111011100000000000000000000000000000000000100010001000100010001000100010010001000100010001000100010001000110011001100110011001100110011010001000100010001000100010001000101010101010101010101010101010101100110011001100110011001100110011101110111011101110111011101110000000000000000000000000000000000010001000100010001000100010001001000100010001000100010001000100011001100110011001100110011001101000100010001000100010001000100010101010101010101010101010101010110011001100110011001100110011001110111011101110111011101110111 j!
16"
b00000000000000000000000000000000000000000000000000000000000000000000000000000000000000000000000000000000000000000000000000000000 7"
b0000000000000000000000000000000000000000000000000000000000000000000000000000000000000000000000000000000000000000000000000000000000000000000000000000000000000000000000000000000000000000000000000000000000000000000000000000000000000000000000000000000000000000000000000000000000000000000000000000000000000000000000000000000000000000000000000000000000000000000000000000000000000000000000000000000000000000000000000000000000000000000000000000000000000000000000000000000000000000000000000000000000000000000000000000000000000000000000000000000000000000000000000000000000000000000000000000000000000000000000000000000000000000000000000000000000000000000000000000000000000000000000000000000000000000000000000000000000000000000000000000000000000000000000000000000000000000000000000000000000000000000000000000000000000000000000000000000000000000000000000000000000000000000000000000000000000000000000000000000000000000000000000000000000000000000000000000000000000000000000000000000000000000000000000000000000000000000000000000000000000000 <"
1^"
b0000000000000000000 `"
1c"
b0000000000000000000 e"
12#
b00000000000000000000000000001001 3#
#9000
02#
#9500
b00000000000000000000000000000000000000000000000000000000000000000000000000000000000000000000000000000000000000000000000000000000 e!
b0000000000000000000000000000000000000000000000000000000000000000000000000000000000000000000000000000000000000000000000000000000000000000000000000000000000000000000000000000000000000000000000000000000000000000000000000000000000000000000000000000000000000000000000000000000000000000000000000000000000000000000000000000000000000000000000000000000000000000000000000000000000000000000000000000000000000000000000000000000000000000000000000000000000000000000000000000000000000000000000000000000000000000000000000000000000000000000000000000000000000000000000000000000000000000000000000000000000000000000000000000000000000000000000000000000000000000000000000000000000000000000000000000000000000000000000000000000000000000000000000000000000000000000000000000000000000000000000000000000000000000000000000000000000000000000000000000000000000000000000000000000000000000000000000000000000000000000000000000000000000000000000000000000000000000000000000000000000000000000000000000000000000000000000000000000000000000000000000000000000000000 j!
b11111111111111111111111111111111111111111111111111111111111111111111111111111111111111111111111111111111111111111111111111111111 7"
b0000000000000000000000000000000000010001000100010001000100010001001000100010001000100010001000100011001100110011001100110011001101000100010001000100010001000100010101010101010101010101010101010110011001100110011001100110011001110111011101110111011101110111000000000000000000000000000000000001000100010001000100010001000100100010001000100010001000100010001100110011001100110011001100110100010001000100010001000100010001010101010101010101010101010101011001100110011001100110011001100111011101110111011101110111011100000000000000000000000000000000000100010001000100010001000100010010001000100010001000100010001000110011001100110011001100110011010001000100010001000100010001000101010101010101010101010101010101100110011001100110011001100110011101110111011101110111011101110000000000000000000000000000000000010001000100010001000100010001001000100010001000100010001000100011001100110011001100110011001101000100010001000100010001000100010101010101010101010101010101010110011001100110011001100110011001110111011101110111011101110111 <"
12#
b00000000000000000000000000001010 3#
#10000
02#
