Processor/tb_dCacheController.vcd
$version Generated by VerilatedVcd $end
$timescale 1ps $end
 $scope module TOP $end
  $scope module CORE_PKG $end
   $var wire 32 4! WORD_SIZE [31:0] $end
   $var wire 32 9! NUM_FUS [31:0] $end
   $var wire 32 6! RS_ENTRIES [31:0] $end
   $var wire 32 :! NUM_PREGS [31:0] $end
   $var wire 32 4! NUM_AREGS [31:0] $end
   $var wire 32 ;! NUM_ROB_ENTS [31:0] $end
   $var wire 32 9! RETIRE_WIDTH [31:0] $end
   $var wire 32 <! DISP_WIDTH [31:0] $end
   $var wire 32 ;! DISP_DEPTH [31:0] $end
   $var wire 32 <! RENAME_WIDTH [31:0] $end
  $upscope $end
  $scope module tb_dCacheController $end
   $var wire 32 -! CLK_PERIOD [31:0] $end
   $var real 64 .! DUTY_CYCLE $end
   $var wire 1 r clk $end
   $var wire 32 s cycle_count [31:0] $end
   $var wire 1 # rst $end
   $scope module arbiter_if $end
    $var wire 1 $ raddr_valid $end
    $var wire 32 % raddr [31:0] $end
    $var wire 32 ,! rdata [31:0] $end
    $var wire 1 < rdata_valid $end
    $var wire 1 . waddr_valid $end
    $var wire 32 / waddr [31:0] $end
    $var wire 256 & wdata [255:0] $end
    $var wire 32 0 wmask [31:0] $end
    $var wire 1 v read_repair_request $end
    $var wire 1 { write_miss_repair $end
    $var wire 32 Z missed_addr [31:0] $end
    $var wire 1 1 repair_resolved $end
   $upscope $end
   $scope module controller_dut $end
    $var wire 1 r clk $end
    $var wire 1 # rst $end
    $scope module arbiter $end
     $var wire 1 $ raddr_valid $end
     $var wire 32 % raddr [31:0] $end
     $var wire 32 ,! rdata [31:0] $end
     $var wire 1 < rdata_valid $end
     $var wire 1 . waddr_valid $end
     $var wire 32 / waddr [31:0] $end
     $var wire 256 & wdata [255:0] $end
     $var wire 32 0 wmask [31:0] $end
     $var wire 1 v read_repair_request $end
     $var wire 1 { write_miss_repair $end
     $var wire 32 Z missed_addr [31:0] $end
     $var wire 1 1 repair_resolved $end
    $upscope $end
    $var wire 32 0! c [31:0] $end
    $var wire 32 1! b [31:0] $end
    $var wire 32 2! s [31:0] $end
    $var wire 32 3! TAG_BITS [31:0] $end
    $var wire 32 -! DIRTY [31:0] $end
    $var wire 32 -! VALID [31:0] $end
    $var wire 1 $ raddr_valid $end
    $var wire 32 % raddr [31:0] $end
    $var wire 256 F rdata_block [255:0] $end
    $var wire 256 & wdata [255:0] $end
    $var wire 1 . waddr_valid $end
    $var wire 32 / waddr [31:0] $end
    $var wire 32 0 wmask [31:0] $end
    $var wire 1 1 repair_resolved $end
    $var wire 256 N wdata_reg [255:0] $end
    $var wire 32 V wmask_reg [31:0] $end
    $var wire 32 W waddr_reg [31:0] $end
    $var wire 1 X waddr_valid_reg $end
    $var wire 32 Y raddr_reg0 [31:0] $end
    $var wire 32 Z raddr_reg1 [31:0] $end
    $var wire 1 [ raddr_valid_reg0 $end
    $var wire 1 \ raddr_valid_reg1 $end
    $var wire 32 = wmask_i [31:0] $end
    $var wire 32 t waddr_i [31:0] $end
    $var wire 256 > wdata_i [255:0] $end
    $var wire 19 u wblock_metadata_i [18:0] $end
    $var wire 1 ] repairing $end
    $var wire 1 v read_repair_request $end
    $var wire 19 w rblock_metadata [18:0] $end
    $var wire 1 x rblock_valid $end
    $var wire 1 y rblock_dirty $end
    $var wire 17 z rtag [16:0] $end
    $var wire 1 { write_miss_repair $end
    $var wire 19 | wblock_metadata [18:0] $end
    $var wire 1 } wblock_valid $end
    $var wire 1 ~ wblock_dirty $end
    $var wire 17 !! wtag [16:0] $end
    $var wire 1 "! write_enable $end
    $scope module data_store $end
     $var wire 32 4! NUM_WMASKS [31:0] $end
     $var wire 32 5! DATA_WIDTH [31:0] $end
     $var wire 32 6! ADDR_WIDTH [31:0] $end
     $var wire 32 5! RAM_DEPTH [31:0] $end
     $var wire 32 7! DELAY [31:0] $end
     $var wire 32 -! VERBOSE [31:0] $end
     $var wire 32 -! T_HOLD [31:0] $end
     $var wire 1 r clk0 $end
     $var wire 1 #! csb0 $end
     $var wire 8 $! addr0 [7:0] $end
     $var wire 32 = wmask0 [31:0] $end
     $var wire 256 > din0 [255:0] $end
     $var wire 1 r clk1 $end
     $var wire 1 ^ csb1 $end
     $var wire 8 _ addr1 [7:0] $end
     $var wire 256 F dout1 [255:0] $end
     $var wire 1 ` csb0_reg $end
     $var wire 32 a wmask0_reg [31:0] $end
     $var wire 8 b addr0_reg [7:0] $end
     $var wire 256 c din0_reg [255:0] $end
     $var wire 1 %! csb1_reg $end
     $var wire 8 &! addr1_reg [7:0] $end
     $scope module MEM_WRITE0 $end
      $scope module unnamedblk1 $end
       $var wire 32 '! i [31:0] $end
      $upscope $end
     $upscope $end
    $upscope $end
    $scope module tag_store0 $end
     $var wire 32 8! DATA_WIDTH [31:0] $end
     $var wire 32 6! ADDR_WIDTH [31:0] $end
     $var wire 32 5! RAM_DEPTH [31:0] $end
     $var wire 32 7! DELAY [31:0] $end
     $var wire 32 -! VERBOSE [31:0] $end
     $var wire 32 -! T_HOLD [31:0] $end
     $var wire 1 r clk0 $end
     $var wire 1 #! csb0 $end
     $var wire 8 $! addr0 [7:0] $end
     $var wire 19 u din0 [18:0] $end
     $var wire 1 r clk1 $end
     $var wire 1 ^ csb1 $end
     $var wire 8 k addr1 [7:0] $end
     $var wire 19 w dout1 [18:0] $end
     $var wire 1 l csb0_reg $end
     $var wire 8 m addr0_reg [7:0] $end
     $var wire 19 n din0_reg [18:0] $end
     $var wire 1 (! csb1_reg $end
     $var wire 8 )! addr1_reg [7:0] $end
    $upscope $end
    $scope module tag_store1 $end
     $var wire 32 8! DATA_WIDTH [31:0] $end
     $var wire 32 6! ADDR_WIDTH [31:0] $end
     $var wire 32 5! RAM_DEPTH [31:0] $end
     $var wire 32 7! DELAY [31:0] $end
     $var wire 32 -! VERBOSE [31:0] $end
     $var wire 32 -! T_HOLD [31:0] $end
     $var wire 1 r clk0 $end
     $var wire 1 #! csb0 $end
     $var wire 8 $! addr0 [7:0] $end
     $var wire 19 u din0 [18:0] $end
     $var wire 1 r clk1 $end
     $var wire 1 2 csb1 $end
     $var wire 8 3 addr1 [7:0] $end
     $var wire 19 | dout1 [18:0] $end
     $var wire 1 o csb0_reg $end
     $var wire 8 p addr0_reg [7:0] $end
     $var wire 19 q din0_reg [18:0] $end
     $var wire 1 *! csb1_reg $end
     $var wire 8 +! addr1_reg [7:0] $end
    $upscope $end
   $upscope $end
   $scope module read_miss_and_repair__Vstatic__unnamedblk1 $end
    $var wire 256 4 repaired_block [255:0] $end
   $upscope $end
  $upscope $end
 $upscope $end
$enddefinitions $end


#0
0#
0$
b00000000000000000000000000000000 %
b0000000000000000000000000000000000000000000000000000000000000000000000000000000000000000000000000000000000000000000000000000000000000000000000000000000000000000000000000000000000000000000000000000000000000000000000000000000000000000000000000000000000000000 &
0.
b00000000000000000000000000000000 /
b00000000000000000000000000000000 0
01
12
b00000000 3
b0000000000000000000000000000000000000000000000000000000000000000000000000000000000000000000000000000000000000000000000000000000000000000000000000000000000000000000000000000000000000000000000000000000000000000000000000000000000000000000000000000000000000000 4
0<
b00000000000000000000000000000000 =
b0000000000000000000000000000000000000000000000000000000000000000000000000000000000000000000000000000000000000000000000000000000000000000000000000000000000000000000000000000000000000000000000000000000000000000000000000000000000000000000000000000000000000000 >
b0000000000000000000000000000000000000000000000000000000000000000000000000000000000000000000000000000000000000000000000000000000000000000000000000000000000000000000000000000000000000000000000000000000000000000000000000000000000000000000000000000000000000000 F
b0000000000000000000000000000000000000000000000000000000000000000000000000000000000000000000000000000000000000000000000000000000000000000000000000000000000000000000000000000000000000000000000000000000000000000000000000000000000000000000000000000000000000000 N
b00000000000000000000000000000000 V
b00000000000000000000000000000000 W
0X
b00000000000000000000000000000000 Y
b00000000000000000000000000000000 Z
0[
0\
0]
1^
b00000000 _
0`
b00000000000000000000000000000000 a
b00000000 b
b0000000000000000000000000000000000000000000000000000000000000000000000000000000000000000000000000000000000000000000000000000000000000000000000000000000000000000000000000000000000000000000000000000000000000000000000000000000000000000000000000000000000000000 c
b00000000 k
0l
b00000000 m
b0000000000000000000 n
0o
b00000000 p
b0000000000000000000 q
0r
b00000000000000000000000000000000 s
b00000000000000000000000000000000 t
b0000000000000000001 u
0v
b0000000000000000000 w
0x
0y
b00000000000000000 z
0{
b0000000000000000000 |
0}
0~
b00000000000000000 !!
0"!
1#!
b00000000 $!
0%!
b00000000 &!
b00000000000000000000000000000000 '!
0(!
b00000000 )!
0*!
b00000000 +!
b00000000000000000000000000000000 ,!
b00000000000000000000000000000001 -!
r0.5 .!
b00000000000000000000000000001111 0!
b00000000000000000000000000000111 1!
b00000000000000000000000000000000 2!
b00000000000000000000000000010001 3!
b00000000000000000000000000100000 4!
b00000000000000000000000100000000 5!
b00000000000000000000000000001000 6!
b00000000000000000000000000000011 7!
b00000000000000000000000000010011 8!
b00000000000000000000000000000100 9!
b00000000000000000000000010000000 :!
b00000000000000000000000001000000 ;!
b00000000000000000000000000000010 <!
#500
1`
1l
b0000000000000000001 n
1o
b0000000000000000001 q
1r
b00000000000000000000000000000001 s
1%!
1(!
1*!
#1000
0r
#1500
1$
b10101010101110111100110011011101 %
b10101010101110111100110011011101 Y
1[
0^
b10011001 _
b11001100 k
1r
b00000000000000000000000000000010 s
#2000
0r
#2500
0$
b00000000000000000000000000000000 %
b00000000000000000000000000000000 Y
b10101010101110111100110011011101 Z
0[
1\
1^
b00000000 _
b00000000 k
1r
b00000000000000000000000000000011 s
1v
0%!
b10011001 &!
0(!
b11001100 )!
#3000
0r
#3500
b0000000000000000000000000000000000010001000100010001000100010001001000100010001000100010001000100011001100110011001100110011001101000100010001000100010001000100010101010101010101010101010101010110011001100110011001100110011001110111011101110111011101110111 &
1.
b10101010101110111100110011011101 /
b11111111111111111111111111111111 0
11
02
b11001100 3
b0000000000000000000000000000000000010001000100010001000100010001001000100010001000100010001000100011001100110011001100110011001101000100010001000100010001000100010101010101010101010101010101010110011001100110011001100110011001110111011101110111011101110111 4
b11111111111111111111111111111111 =
b0000000000000000000000000000000000010001000100010001000100010001001000100010001000100010001000100011001100110011001100110011001101000100010001000100010001000100010101010101010101010101010101010110011001100110011001100110011001110111011101110111011101110111 >
b0000000000000000000000000000000000010001000100010001000100010001001000100010001000100010001000100011001100110011001100110011001101000100010001000100010001000100010101010101010101010101010101010110011001100110011001100110011001110111011101110111011101110111 N
b11111111111111111111111111111111 V
b10101010101110111100110011011101 W
1X
b00000000000000000000000000000000 Z
0\
1]
0`
b11111111111111111111111111111111 a
b10011001 b
b0000000000000000000000000000000000010001000100010001000100010001001000100010001000100010001000100011001100110011001100110011001101000100010001000100010001000100010101010101010101010101010101010110011001100110011001100110011001110111011101110111011101110111 c
0l
b10011001 m
b1010101010111011101 n
0o
b10011001 p
b1010101010111011101 q
1r
b00000000000000000000000000000100 s
b10101010101110111100110011011101 t
b1010101010111011101 u
0v
1"!
0#!
b10011001 $!
#4000
0r
b00000000000000000000000000100000 '!
#4500
1#
b0000000000000000000000000000000000000000000000000000000000000000000000000000000000000000000000000000000000000000000000000000000000000000000000000000000000000000000000000000000000000000000000000000000000000000000000000000000000000000000000000000000000000000 &
0.
b00000000000000000000000000000000 /
b00000000000000000000000000000000 0
01
12
b00000000 3
b00000000000000000000000000000000 =
b0000000000000000000000000000000000000000000000000000000000000000000000000000000000000000000000000000000000000000000000000000000000000000000000000000000000000000000000000000000000000000000000000000000000000000000000000000000000000000000000000000000000000000 >
b0000000000000000000000000000000000000000000000000000000000000000000000000000000000000000000000000000000000000000000000000000000000000000000000000000000000000000000000000000000000000000000000000000000000000000000000000000000000000000000000000000000000000000 N
b00000000000000000000000000000000 V
b00000000000000000000000000000000 W
0X
0]
b0000000000000000001 n
b0000000000000000001 q
1r
b00000000000000000000000000000101 s
b00000000000000000000000000000000 t
b0000000000000000001 u
0"!
1#!
b00000000 $!
1%!
b00000000 &!
1(!
b00000000 )!
0*!
b11001100 +!
#5000
0r
#5500
1`
b00000000000000000000000000000000 a
b00000000 b
b0000000000000000000000000000000000000000000000000000000000000000000000000000000000000000000000000000000000000000000000000000000000000000000000000000000000000000000000000000000000000000000000000000000000000000000000000000000000000000000000000000000000000000 c
1l
b00000000 m
1o
b00000000 p
1r
b00000000000000000000000000000110 s
#6000
0r
#6500
1r
b00000000000000000000000000000111 s
1*!
b00000000 +!
#7000
0r
#7500
1r
b00000000000000000000000000001000 s
#8000
0r
#8500
1r
b00000000000000000000000000001001 s
#9000
0r
#9500
1r
b00000000000000000000000000001010 s
#10000
0r
#10500
1r
b00000000000000000000000000001011 s
#11000
0r
#11500
1r
b00000000000000000000000000001100 s
#12000
0r
#12500
1r
b00000000000000000000000000001101 s
#13000
0r
#13500
1r
b00000000000000000000000000001110 s
#14000
0r
#14500
1r
b00000000000000000000000000001111 s
#15000
0r
#15500
1r
b00000000000000000000000000010000 s
#16000
0r
#16500
1r
b00000000000000000000000000010001 s
#17000
0r
#17500
1r
b00000000000000000000000000010010 s
#18000
0r
#18500
1r
b00000000000000000000000000010011 s
#19000
0r
#19500
1r
b00000000000000000000000000010100 s
#20000
0r
#20500
1r
b00000000000000000000000000010101 s
#21000
0r
#21500
1r
b00000000000000000000000000010110 s
#22000
0r
#22500
1r
b00000000000000000000000000010111 s
#23000
0r
#23500
1r
b00000000000000000000000000011000 s
#24000
0r
#24500
1r
b00000000000000000000000000011001 s
#25000
0r
#25500
1r
b00000000000000000000000000011010 s
#26000
0r
#26500
1r
b00000000000000000000000000011011 s
#27000
0r
#27500
1r
b00000000000000000000000000011100 s
#28000
0r
#28500
1r
b00000000000000000000000000011101 s
#29000
0r
#29500
1r
b00000000000000000000000000011110 s
#30000
0r
#30500
1r
b00000000000000000000000000011111 s
#31000
0r
#31500
1r
b00000000000000000000000000100000 s
#32000
0r
#32500
1r
b00000000000000000000000000100001 s
#33000
0r
#33500
1r
b00000000000000000000000000100010 s
#34000
0r
#34500
1r
b00000000000000000000000000100011 s
#35000
0r
#35500
1r
b00000000000000000000000000100100 s
#36000
0r
#36500
1r
b00000000000000000000000000100101 s
#37000
0r
#37500
1r
b00000000000000000000000000100110 s
#38000
0r
#38500
1r
b00000000000000000000000000100111 s
#39000
0r
#39500
1r
b00000000000000000000000000101000 s
#40000
0r
#40500
1r
b00000000000000000000000000101001 s
#41000
0r
#41500
1r
b00000000000000000000000000101010 s
#42000
0r
#42500
1r
b00000000000000000000000000101011 s
#43000
0r
#43500
1r
b00000000000000000000000000101100 s
#44000
0r
#44500
1r
b00000000000000000000000000101101 s
#45000
0r
#45500
1r
b00000000000000000000000000101110 s
#46000
0r
#46500
1r
b00000000000000000000000000101111 s
#47000
0r
#47500
1r
b00000000000000000000000000110000 s
#48000
0r
#48500
1r
b00000000000000000000000000110001 s
#49000
0r
#49500
1r
b00000000000000000000000000110010 s
#50000
0r
#50500
1r
b00000000000000000000000000110011 s
#51000
0r
#51500
1r
b00000000000000000000000000110100 s
#52000
0r
#52500
1r
b00000000000000000000000000110101 s
#53000
0r
#53500
1r
b00000000000000000000000000110110 s
#54000
0r
#54500
1r
b00000000000000000000000000110111 s
