Processor/tb_wakeup.vcd
$version Generated by VerilatedVcd $end
$timescale 1ps $end
 $scope module TOP $end
  $scope module CORE_PKG $end
   $var wire 32 H RS_ENTRIES [31:0] $end
   $var wire 32 H NUM_FUS [31:0] $end
  $upscope $end
  $scope module tb_wakeup $end
   $var wire 32 D CLK_PERIOD [31:0] $end
   $var real 64 E DUTY_CYCLE $end
   $var wire 1 B clk $end
   $var wire 1 # rst $end
   $var wire 32 C cycle_count [31:0] $end
   $var wire 1 $ disp_valid $end
   $var wire 4 % dependency_mask [3:0] $end
   $var wire 1 5 free_entry_out [0:0] $end
   $var wire 1 6 full_out $end
   $var wire 2 7 reqs [1:0] $end
   $var wire 1 & grant [0:0] $end
   $var wire 1 ' grant_valid $end
   $var wire 4 ( ready_mask [3:0] $end
   $var wire 1 ) retire_entry [0:0] $end
   $var wire 1 * retire_valid $end
   $var wire 32 + pass_count [31:0] $end
   $var wire 32 , fail_count [31:0] $end
   $var wire 1 - test_grant_ready__Vstatic__granted_entry [0:0] $end
   $var wire 1 . test_retire__Vstatic__retired_entry [0:0] $end
   $var wire 1 / test_dispatch_with_deps__Vstatic__dispatched_entry [0:0] $end
   $var wire 1 0 test_clear_dependencies__Vstatic__dep_entry [0:0] $end
   $var wire 32 1 test_fill_rs__Vstatic__valid_count [31:0] $end
   $var wire 32 2 test_dispatch_when_full__Vstatic__valid_count_before [31:0] $end
   $var wire 32 3 test_dispatch_when_full__Vstatic__valid_count_after [31:0] $end
   $var wire 1 4 test_dispatch_after_free__Vstatic__new_entry [0:0] $end
   $scope module dut $end
    $var wire 1 B clk $end
    $var wire 1 # rst $end
    $var wire 1 $ disp_valid $end
    $var wire 4 % dependency_mask [3:0] $end
    $var wire 1 5 free_entry_out [0:0] $end
    $var wire 1 6 full_out $end
    $var wire 2 7 reqs [1:0] $end
    $var wire 1 & grant [0:0] $end
    $var wire 1 ' grant_valid $end
    $var wire 4 ( ready_mask [3:0] $end
    $var wire 1 ) retire_entry [0:0] $end
    $var wire 1 * retire_valid $end
    $var wire 2 8 entry_valid [1:0] $end
    $var wire 2 9 entry_granted [1:0] $end
    $var wire 1 : free_entry [0:0] $end
    $var wire 1 ; full $end
    $var wire 4 < dependency_matrix_row[0] [3:0] $end
    $var wire 4 = dependency_matrix_row[1] [3:0] $end
    $var wire 1 > flag $end
    $scope module unnamedblk1 $end
     $var wire 32 ? i [31:0] $end
     $scope module unnamedblk2 $end
      $var wire 32 @ j [31:0] $end
     $upscope $end
    $upscope $end
    $scope module unnamedblk3 $end
     $var wire 32 A i [31:0] $end
    $upscope $end
    $scope module unnamedblk4 $end
     $var wire 32 G i [31:0] $end
    $upscope $end
    $scope module unnamedblk5 $end
     $var wire 32 G i [31:0] $end
    $upscope $end
   $upscope $end
  $upscope $end
 $upscope $end
$enddefinitions $end


#0
1#
0$
b0000 %
0&
0'
b0000 (
0)
0*
b00000000000000000000000000000000 +
b00000000000000000000000000000000 ,
0-
0.
0/
00
b00000000000000000000000000000000 1
b00000000000000000000000000000000 2
b00000000000000000000000000000000 3
04
05
06
b00 7
b00 8
b00 9
0:
0;
b0000 <
b0000 =
1>
b00000000000000000000000000000000 ?
b00000000000000000000000000000000 @
b00000000000000000000000000000000 A
0B
b00000000000000000000000000000000 C
b00000000000000000000000000010100 D
r0.5 E
b00000000000000000000000000000010 G
b00000000000000000000000000000010 H
#10000
b00000000000000000000000000000010 ?
b00000000000000000000000000000100 @
1B
b00000000000000000000000000000001 C
#20000
0B
#30000
1B
b00000000000000000000000000000010 C
#40000
0B
#50000
1B
b00000000000000000000000000000011 C
#60000
0#
0B
#70000
b00000000000000000000000000000010 A
1B
b00000000000000000000000000000100 C
#80000
1$
0B
#90000
15
b01 7
b01 8
1:
1B
b00000000000000000000000000000101 C
#100000
0$
0B
#110000
1B
b00000000000000000000000000000110 C
#120000
0B
#130000
1'
b00000000000000000000000000000010 +
b00 7
b01 9
1B
b00000000000000000000000000000111 C
#140000
0'
0B
#150000
1B
b00000000000000000000000000001000 C
#160000
1*
b00000000000000000000000000000100 +
0B
#170000
05
b00 8
b00 9
0:
1B
b00000000000000000000000000001001 C
#180000
0*
0B
#190000
1B
b00000000000000000000000000001010 C
#200000
1$
b0011 %
b00000000000000000000000000000110 +
0B
#210000
15
b01 8
1:
b0011 <
1B
b00000000000000000000000000001011 C
#220000
0$
0B
#230000
1B
b00000000000000000000000000001100 C
#240000
b0001 (
b00000000000000000000000000001000 +
0B
#250000
b0010 <
1B
b00000000000000000000000000001101 C
#260000
b0011 (
b00000000000000000000000000001001 +
0B
#270000
b01 7
b0000 <
1B
b00000000000000000000000000001110 C
#280000
b0000 (
b00000000000000000000000000001011 +
0B
#290000
1B
b00000000000000000000000000001111 C
#300000
1$
b0000 %
0B
#310000
05
16
b11 7
b11 8
0:
1;
0>
1B
b00000000000000000000000000010000 C
#320000
0$
0B
#330000
1B
b00000000000000000000000000010001 C
#340000
1$
b00000000000000000000000000001101 +
b00000000000000000000000000000010 1
b00000000000000000000000000000010 2
0B
#350000
1B
b00000000000000000000000000010010 C
#360000
0$
0B
#370000
1B
b00000000000000000000000000010011 C
#380000
1'
b00000000000000000000000000001111 +
b00000000000000000000000000000010 3
0B
#390000
b10 7
b01 9
1B
b00000000000000000000000000010100 C
#400000
0'
0B
#410000
1B
b00000000000000000000000000010101 C
#420000
1*
0B
#430000
06
b10 8
b00 9
0;
1>
1B
b00000000000000000000000000010110 C
#440000
0*
0B
#450000
1B
b00000000000000000000000000010111 C
#460000
1&
1'
0B
#470000
b00 7
b10 9
1B
b00000000000000000000000000011000 C
#480000
0'
0B
#490000
1B
b00000000000000000000000000011001 C
#500000
1)
1*
0B
#510000
b00 8
b00 9
1B
b00000000000000000000000000011010 C
#520000
0*
0B
#530000
1B
b00000000000000000000000000011011 C
#540000
1$
b00000000000000000000000000010000 +
0B
#550000
15
b01 7
b01 8
1:
1B
b00000000000000000000000000011100 C
#560000
0$
0B
#570000
1B
b00000000000000000000000000011101 C
#580000
b00000000000000000000000000010010 +
0B
#590000
1B
b00000000000000000000000000011110 C
#600000
0B
#610000
1B
b00000000000000000000000000011111 C
#620000
0B
#630000
1B
b00000000000000000000000000100000 C
#640000
0B
#650000
1B
b00000000000000000000000000100001 C
#660000
0B
#670000
1B
b00000000000000000000000000100010 C
